1000001000,0,2
1000002000,0,2
1000003000,0,2
1000004000,0,2
1000005000,0,2
1000006000,0,2
1000007000,0,2
1000008000,0,2
1000009000,0,2
1000010000,0,2
1000011000,0,2
1000012000,0,2
1000013000,0,2
1000014000,0,2
1000015000,0,2
1000016000,0,2
1000017000,0,2
1000018000,0,2
1000019000,0,2
1000020000,0,2
1000021000,0,2
1000022000,0,2
1000023000,0,2
1000024000,0,2
1000025000,0,2
1000026000,0,2
1000027000,0,2
1000028000,0,2
1000029000,0,2
1000030000,0,2
1000031000,0,2
1000032000,0,2
1000033000,0,2
1000034000,0,2
1000035000,0,2
1000036000,0,2
1000037000,0,2
1000038000,0,2
1000039000,0,2
1000040000,0,2
1000041000,0,2
1000042000,0,2
1000043000,0,2
1000044000,0,2
1000045000,0,2
1000046000,0,2
1000047000,0,2
1000048000,0,2
1000049000,0,2
1000050000,0,2
1000051000,0,2
1000052000,0,2
1000053000,0,2
1000054000,0,2
1000055000,0,2
1000056000,0,2
1000057000,0,2
1000058000,0,2
1000059000,0,2
1000060000,0,2
1000061000,0,2
1000062000,0,2
1000063000,0,2
1000064000,0,2
1000065000,0,2
1000066000,0,2
1000067000,0,2
1000068000,0,2
1000069000,0,2
1000070000,0,2
1000071000,0,2
1000072000,0,2
1000073000,0,2
1000074000,0,2
1000075000,0,2
1000076000,0,2
1000077000,0,2
1000078000,0,2
1000079000,0,2
1000080000,0,2
1000081000,0,2
1000082000,0,2
1000083000,0,2
1000084000,0,2
1000085000,0,2
1000086000,0,2
1000087000,0,2
1000088000,0,2
1000089000,0,2
1000090000,0,2
1000091000,0,2
1000092000,0,2
1000093000,0,2
1000094000,0,2
1000095000,0,2
1000096000,0,2
1000097000,0,2
1000098000,0,2
1000099000,0,2
1000100000,0,2
1000101000,0,2
1000102000,0,2
1000103000,0,2
1000104000,0,2
1000105000,0,2
1000106000,0,2
1000107000,0,2
1000108000,0,2
1000109000,0,2
1000110000,0,2
1000111000,0,2
1000112000,0,2
1000113000,0,2
1000114000,0,2
1000115000,0,2
1000116000,0,2
1000117000,0,2
1000118000,0,2
1000119000,0,2
1000120000,0,2
1000121000,0,2
1000122000,0,2
1000123000,0,2
1000124000,0,2
1000125000,0,2
1000126000,0,2
1000127000,0,2
1000128000,0,2
1000129000,0,2
1000130000,0,2
1000131000,0,2
1000132000,0,2
1000133000,0,2
1000134000,0,2
1000135000,0,2
1000136000,0,2
1000137000,0,2
1000138000,0,2
1000139000,0,2
1000140000,0,2
1000141000,0,2
1000142000,0,2
1000143000,0,2
1000144000,0,2
1000145000,0,2
1000146000,0,2
1000147000,0,2
1000148000,0,2
1000149000,0,2
1000150000,0,2
1000151000,0,2
1000152000,0,2
1000153000,0,2
1000154000,0,2
1000155000,0,2
1000156000,0,2
1000157000,0,2
1000158000,0,2
1000159000,0,2
1000160000,0,2
1000161000,0,2
1000162000,0,2
1000163000,0,2
1000164000,0,2
1000165000,0,2
1000166000,0,2
1000167000,0,2
1000168000,0,2
1000169000,0,2
1000170000,0,2
1000171000,0,2
1000172000,0,2
1000173000,0,2
1000174000,0,2
1000175000,0,2
1000176000,0,2
1000177000,0,2
1000178000,0,2
1000179000,0,2
1000180000,0,2
1000181000,0,2
1000182000,0,2
1000183000,0,2
1000184000,0,2
1000185000,0,2
1000186000,0,2
1000187000,0,2
1000188000,0,2
1000189000,0,2
1000190000,0,2
1000191000,0,2
1000192000,0,2
1000193000,0,2
1000194000,0,2
1000195000,0,2
1000196000,0,2
1000197000,0,2
1000198000,0,2
1000199000,0,2
1000200000,0,2
1000201000,0,2
1000202000,0,2
1000203000,0,2
1000204000,0,2
1000205000,0,2
1000206000,0,2
1000207000,0,2
1000208000,0,2
1000209000,0,2
1000210000,0,2
1000211000,0,2
1000212000,0,2
1000213000,0,2
1000214000,0,2
1000215000,0,2
1000216000,0,2
1000217000,0,2
1000218000,0,2
1000219000,0,2
1000220000,0,2
1000221000,0,2
1000222000,0,2
1000223000,0,2
1000224000,0,2
1000225000,0,2
1000226000,0,2
1000227000,0,2
1000228000,0,2
1000229000,0,2
1000230000,0,2
1000231000,0,2
1000232000,0,2
1000233000,0,2
1000234000,0,2
1000235000,0,2
1000236000,0,2
1000237000,0,2
1000238000,0,2
1000239000,0,2
1000240000,0,2
1000241000,0,2
1000242000,0,2
1000243000,0,2
1000244000,0,2
1000245000,0,2
1000246000,0,2
1000247000,0,2
1000248000,0,2
1000249000,0,2
1000250000,0,2
1000251000,0,2
1000252000,0,2
1000253000,0,2
1000254000,0,2
1000255000,0,2
1000256000,0,2
1000257000,0,2
1000258000,0,2
1000259000,0,2
1000260000,0,2
1000261000,0,2
1000262000,0,2
1000263000,0,2
1000264000,0,2
1000265000,0,2
1000266000,0,2
1000267000,0,2
1000268000,0,2
1000269000,0,2
1000270000,0,2
1000271000,0,2
1000272000,0,2
1000273000,0,2
1000274000,0,2
1000275000,0,2
1000276000,0,2
1000277000,0,2
1000278000,0,2
1000279000,0,2
1000280000,0,2
1000281000,0,2
1000282000,0,2
1000283000,0,2
1000284000,0,2
1000285000,0,2
1000286000,0,2
1000287000,0,2
1000288000,0,2
1000289000,0,2
1000290000,0,2
1000291000,0,2
1000292000,0,2
1000293000,0,2
1000294000,0,2
1000295000,0,2
1000296000,0,2
1000297000,0,2
1000298000,0,2
1000299000,0,2
1000300000,0,2