2014-07-28 11:07:35Rozpoczynam prace
2014-07-28 11:10:05Rozpoczynam prace
2014-07-28 11:11:37Rozpoczynam prace
2014-07-28 11:11:37Anuluje 240523002014
2014-07-28 11:11:37Wysylam maila do kontakt@profit24.pl
2014-07-28 11:11:37Anuluje 240523003314
2014-07-28 11:11:37Wysylam maila do kontakt@profit24.pl
2014-07-28 11:11:37Anuluje 060523010314
2014-07-28 11:11:37Wysylam maila do kontakt@profit24.pl
2014-07-28 11:11:37Anuluje 240524003914
2014-07-28 11:11:37Wysylam maila do kontakt@profit24.pl
2014-07-28 11:11:37Anuluje 240525007214
2014-07-28 11:11:37Wysylam maila do kontakt@profit24.pl
2014-07-28 11:11:37Anuluje 060527001514
2014-07-28 11:11:37Wysylam maila do kontakt@profit24.pl
2014-07-28 11:11:37Anuluje 060527009614
2014-07-28 11:11:37Wysylam maila do kontakt@profit24.pl
2014-07-28 11:11:37Anuluje 240527010014
2014-07-28 11:11:37Wysylam maila do kontakt@profit24.pl
2014-07-28 11:11:37Anuluje 240527017214
2014-07-28 11:11:37Wysylam maila do kontakt@profit24.pl
2014-07-28 11:11:37Anuluje 060528018714
2014-07-28 11:11:37Wysylam maila do kontakt@profit24.pl
2014-07-28 11:11:37Anuluje 240528020514
2014-07-28 11:11:37Wysylam maila do kontakt@profit24.pl
2014-07-28 11:11:37Anuluje 060529011914
2014-07-28 11:11:37Wysylam maila do kontakt@profit24.pl
2014-07-28 11:11:37Anuluje 240529014614
2014-07-28 11:11:37Wysylam maila do kontakt@profit24.pl
2014-07-28 11:11:37Anuluje 060530008814
2014-07-28 11:11:37Wysylam maila do kontakt@profit24.pl
2014-07-28 11:11:37Anuluje 240601003314
2014-07-28 11:11:37Wysylam maila do kontakt@profit24.pl
2014-07-28 11:11:37Anuluje 060603011314
2014-07-28 11:11:37Wysylam maila do kontakt@profit24.pl
2014-07-28 11:11:37Anuluje 240605005314
2014-07-28 11:11:37Wysylam maila do kontakt@profit24.pl
2014-07-28 11:11:37Anuluje 240605005714
2014-07-28 11:11:37Wysylam maila do kontakt@profit24.pl
2014-07-28 11:11:37Anuluje 240605005914
2014-07-28 11:11:37Wysylam maila do kontakt@profit24.pl
2014-07-28 11:11:37Anuluje 240605009314
2014-07-28 11:11:37Wysylam maila do kontakt@profit24.pl
2014-07-28 11:11:37Anuluje 240605015114
2014-07-28 11:11:37Wysylam maila do kontakt@profit24.pl
2014-07-28 11:11:37Anuluje 240608000414
2014-07-28 11:11:37Wysylam maila do kontakt@profit24.pl
2014-07-28 11:11:37Anuluje 060608001214
2014-07-28 11:11:37Wysylam maila do kontakt@profit24.pl
2014-07-28 11:11:37Anuluje 240610003914
2014-07-28 11:11:37Wysylam maila do kontakt@profit24.pl
2014-07-28 11:11:37Anuluje 240610011314
2014-07-28 11:11:37Wysylam maila do kontakt@profit24.pl
2014-07-28 11:11:37Anuluje 240610012214
2014-07-28 11:11:37Wysylam maila do kontakt@profit24.pl
2014-07-28 11:11:37Anuluje 240610014914
2014-07-28 11:11:37Wysylam maila do kontakt@profit24.pl
2014-07-28 11:11:37Anuluje 240611012714
2014-07-28 11:11:37Wysylam maila do kontakt@profit24.pl
2014-07-28 11:11:37Anuluje 240611014114
2014-07-28 11:11:37Wysylam maila do kontakt@profit24.pl
2014-07-28 11:11:37Anuluje 060611014314
2014-07-28 11:11:37Wysylam maila do kontakt@profit24.pl
2014-07-28 11:11:37Anuluje 240611014914
2014-07-28 11:11:37Wysylam maila do kontakt@profit24.pl
2014-07-28 11:11:37Anuluje 060611015414
2014-07-28 11:11:37Wysylam maila do kontakt@profit24.pl
2014-07-28 11:11:37Anuluje 240612008514
2014-07-28 11:11:37Wysylam maila do kontakt@profit24.pl
2014-07-28 11:11:37Anuluje 240612011914
2014-07-28 11:11:37Wysylam maila do kontakt@profit24.pl
2014-07-28 11:11:37Anuluje 060613006314
2014-07-28 11:11:37Wysylam maila do kontakt@profit24.pl
2014-07-28 11:11:37Anuluje 060613008014
2014-07-28 11:11:37Wysylam maila do kontakt@profit24.pl
2014-07-28 11:11:37Anuluje 060613011514
2014-07-28 11:11:37Wysylam maila do kontakt@profit24.pl
2014-07-28 11:11:37Anuluje 240613012814
2014-07-28 11:11:37Wysylam maila do kontakt@profit24.pl
2014-07-28 11:11:37Anuluje 240613017214
2014-07-28 11:11:37Wysylam maila do kontakt@profit24.pl
2014-07-28 11:11:37Anuluje 240614001314
2014-07-28 11:11:37Wysylam maila do kontakt@profit24.pl
2014-07-28 11:11:37Anuluje 060614004614
2014-07-28 11:11:37Wysylam maila do kontakt@profit24.pl
2014-07-28 11:11:37Anuluje 060614005914
2014-07-28 11:11:37Wysylam maila do kontakt@profit24.pl
2014-07-28 11:11:37Anuluje 240614011514
2014-07-28 11:11:37Wysylam maila do kontakt@profit24.pl
2014-07-28 11:11:37Anuluje 240615001114
2014-07-28 11:11:37Wysylam maila do kontakt@profit24.pl
2014-07-28 11:11:37Anuluje 240615007014
2014-07-28 11:11:37Wysylam maila do kontakt@profit24.pl
2014-07-28 11:11:37Anuluje 240615007314
2014-07-28 11:11:37Wysylam maila do kontakt@profit24.pl
2014-07-28 11:11:37Anuluje 060615009014
2014-07-28 11:11:37Wysylam maila do kontakt@profit24.pl
2014-07-28 11:11:37Anuluje 060615013014
2014-07-28 11:11:37Wysylam maila do kontakt@profit24.pl
2014-07-28 11:11:37Anuluje 060616000914
2014-07-28 11:11:37Wysylam maila do kontakt@profit24.pl
2014-07-28 11:11:37Anuluje 060616001414
2014-07-28 11:11:37Wysylam maila do kontakt@profit24.pl
2014-07-28 11:11:37Anuluje 240616016414
2014-07-28 11:11:37Wysylam maila do kontakt@profit24.pl
2014-07-28 11:11:37Anuluje 240616018414
2014-07-28 11:11:37Wysylam maila do kontakt@profit24.pl
2014-07-28 11:11:37Anuluje 060616026414
2014-07-28 11:11:37Wysylam maila do kontakt@profit24.pl
2014-07-28 11:11:37Anuluje 060616027114
2014-07-28 11:11:37Wysylam maila do kontakt@profit24.pl
2014-07-28 11:11:37Anuluje 240616027514
2014-07-28 11:11:37Wysylam maila do kontakt@profit24.pl
2014-07-28 11:11:37Anuluje 060617003814
2014-07-28 11:11:37Wysylam maila do kontakt@profit24.pl
2014-07-28 11:11:37Anuluje 240617004514
2014-07-28 11:11:37Wysylam maila do kontakt@profit24.pl
2014-07-28 11:11:37Anuluje 240617012714
2014-07-28 11:11:37Wysylam maila do kontakt@profit24.pl
2014-07-28 11:11:37Anuluje 240617016414
2014-07-28 11:11:37Wysylam maila do kontakt@profit24.pl
2014-07-28 11:11:37Anuluje 060617023414
2014-07-28 11:11:37Wysylam maila do kontakt@profit24.pl
2014-07-28 11:11:37Anuluje 240618001414
2014-07-28 11:11:37Wysylam maila do kontakt@profit24.pl
2014-07-28 11:11:37Anuluje 240618006014
2014-07-28 11:11:37Wysylam maila do kontakt@profit24.pl
2014-07-28 11:11:37Anuluje 240618007414
2014-07-28 11:11:37Wysylam maila do kontakt@profit24.pl
2014-07-28 11:11:37Anuluje 060618009514
2014-07-28 11:11:37Wysylam maila do kontakt@profit24.pl
2014-07-28 11:11:37Anuluje 060618011014
2014-07-28 11:11:37Wysylam maila do kontakt@profit24.pl
2014-07-28 11:11:37Anuluje 060618012414
2014-07-28 11:11:37Wysylam maila do kontakt@profit24.pl
2014-07-28 11:11:37Anuluje 240618012514
2014-07-28 11:11:37Wysylam maila do kontakt@profit24.pl
2014-07-28 11:11:37Anuluje 240619005414
2014-07-28 11:11:37Wysylam maila do kontakt@profit24.pl
2014-07-28 11:11:37Anuluje 060619005614
2014-07-28 11:11:37Wysylam maila do kontakt@profit24.pl
2014-07-28 11:11:37Anuluje 240619006514
2014-07-28 11:11:37Wysylam maila do kontakt@profit24.pl
2014-07-28 11:11:37Anuluje 240619008914
2014-07-28 11:11:37Wysylam maila do kontakt@profit24.pl
2014-07-28 11:11:37Anuluje 240620003914
2014-07-28 11:11:37Wysylam maila do kontakt@profit24.pl
2014-07-28 11:11:37Anuluje 060620007114
2014-07-28 11:11:37Wysylam maila do kontakt@profit24.pl
2014-07-28 11:11:37Anuluje 240620008014
2014-07-28 11:11:37Wysylam maila do kontakt@profit24.pl
2014-07-28 11:11:37Anuluje 240621004814
2014-07-28 11:11:37Wysylam maila do kontakt@profit24.pl
2014-07-28 11:11:38Anuluje 240621007114
2014-07-28 11:11:38Wysylam maila do kontakt@profit24.pl
2014-07-28 11:11:38Anuluje 240621008814
2014-07-28 11:11:38Wysylam maila do kontakt@profit24.pl
2014-07-28 11:12:12Rozpoczynam prace
2014-07-28 11:12:26Rozpoczynam prace
2014-07-28 11:12:27Rozpoczynam prace
2014-07-28 11:12:27Rozpoczynam prace
2014-07-28 11:12:27Rozpoczynam prace
2014-07-28 11:12:27Rozpoczynam prace
2014-07-28 11:12:28Rozpoczynam prace
2014-07-28 11:12:28Rozpoczynam prace
2014-07-28 11:13:25Rozpoczynam prace
2015-10-29 08:38:31Rozpoczynam prace
2015-10-29 08:42:02Rozpoczynam prace
2015-10-29 08:44:39Rozpoczynam prace
2015-10-29 08:45:05Rozpoczynam prace
2015-10-29 08:45:51Rozpoczynam prace
2015-10-29 08:46:17Rozpoczynam prace
2015-10-29 08:47:35Rozpoczynam prace
2015-10-29 08:50:38Rozpoczynam prace
2015-10-29 08:52:25Rozpoczynam prace
