9788325512071,9788325512071,"Konstytucja Rzeczypospolitej Polskiej",5,"9,1",5%
9788325589844,9788325589844,"Kodeks postępowania administracyjnego",10,"9,9",5%
9788325586683,9788325586683,"Kodeks rodzinny i opiekuńczy",10,"9,9",5%
9788325586447,9788325586447,"Kodeks karny",10,"9,9",5%
9788325586478,9788325586478,"Kodeks pracy",10,"9,9",5%
9788325586423,9788325586423,"Kodeks cywilny",10,"9,9",5%
9788378431954,9788378431954,"Fiszki obrazkowe Idiomy",20,"9,99",5%
9788378431923,9788378431923,"Fiszki obrazkowe Mów po angielsku",20,"9,99",5%
9788378431893,9788378431893,"Fiszki + Domino - dom i szkoła",20,"9,99",5%
9788378431909,9788378431909,"Fiszki + Memorki - hobby",20,"9,99",5%
9788378431886,9788378431886,"Fiszki + Piotruś - zawody",20,"9,99",5%
9788378431916,9788378431916,"Fiszki + Kwartet - zwierzęta",20,"9,99",5%
5907591927424,5907591927424,"Fiszki rozmówki + karty",20,"9,99",23%
5907591927417,5907591927417,"Fiszki 4 gry",20,"9,99",23%
9788378431930,9788378431930,"Fiszki obrazkowe Czasowniki nieregularne",20,"9,99",5%
9788378431947,9788378431947,"Fiszki obrazkowe Czasowniki frazowe",20,"9,99",5%
9788310130051,9788310130051,"Zaczarowana zagroda",20,"11,9",5%
9788378432326,9788378432326,"Grajki 3-4 lata",20,"11,99",5%
9788378432340,9788378432340,"Grajki 5-6 lat",20,"11,99",5%
9788378432333,9788378432333,"Grajki 4-5 lat",20,"11,99",5%
9788378432319,9788378432319,"Grajki 2-3 lata",20,"11,99",5%
9788365414069,9788365414069,"Ekskluzywny żebrak",30,12,5%
9788325586492,9788325586492,"Kodeks spółek handlowych",10,"12,9",5%
9788325586508,9788325586508,"Prawo wykroczeń",10,"12,9",5%
9788325588281,9788325588281,"Ordynacja podatkowa",5,"12,9",5%
9788377853580,9788377853580,"Pan Pierdziołka spadł ze stołka",20,14,5%
9788325586553,9788325586553,"Prawo restrukturyzacyjne",5,"14,9",5%
9788325586546,9788325586546,"Prawo upadłościowe",5,"14,9",5%
9788325586539,9788325586539,"Prawo zamówień publicznych",5,"14,9",5%
9788325586454,9788325586454,"Kodeks postępowania karnego",10,"14,9",5%
9788325586522,9788325586522,"Prawo budowlane",5,"14,9",5%
9788325586294,9788325586294,"Prawo Unii Europejskiej",10,"14,9",5%
9788325586515,9788325586515,"Kodeks karny wykonawczy",15,"14,9",5%
9788362502691,9788362502691,"Pączek",40,"16,91",5%
9788325586430,9788325586430,"Kodeks postępowania cywilnego",10,"17,9",5%
9788377857120,9788377857120,"Wiejskie gryzmołki Pana Pierdziołki",10,"19,01",5%
9788377856802,9788377856802,"Władca Pierścieni Tom 1: Bractwo Pierścienia",10,"19,01",5%
9788377856819,9788377856819,"Władca Pierścieni Tom 2: Dwie wieże",10,"19,01",5%
9788377856826,9788377856826,"Władca Pierścieni Tom 3: Powrót króla",10,"19,01",5%
9788374408370,9788374408370,"Umowy zlecenia i inne umowy cywilnoprawne od 1 stycznia 2017",15,"19,9",5%
9788378644330,9788378644330,"Ks. Jan Kaczkowski 1977-2016 Wspomnienie",10,"19,9",5%
9788362502547,9788362502547,"Upokorzona",20,"19,9",5%
9788362502769,9788362502769,"Kiedyś jutro",40,"19,9",5%
9788377858073,9788377858073,"Doktor Dolittle i jego zwierzęta (dodruk 2015)",30,"19,9",5%
9788362502653,9788362502653,"Nieznajoma z internetu",40,"19,9",5%
9788362502837,9788362502837,"Pączek wita Nowy Rok",40,"19,9",5%
9788375567403,9788375567403,"Technika pisania prac magisterskich i licencjackich",4,"19,9",5%
9788362502745,9788362502745,"Pączek jedzie do Zakopanego",40,"19,9",5%
9788378432265,9788378432265,"Fiszki - Naukowe sekrety motywacji w 4 dni",25,"19,99",5%
9788378432234,9788378432234,"Fiszki - Szkoła projektowania prezentacji w 4 dni",25,"19,99",5%
9788378432241,9788378432241,"Fiszki - Wystąpienia publiczne w 4 dni",25,"19,99",5%
9788378432258,9788378432258,"Fiszki - Efektywny trening antystresowy w 4 dni",25,"19,99",5%
9788378432449,9788378432449,"Dziecko rodzic Budowanie więzi fiszki",20,"19,99",5%
9788378432432,9788378432432,"Dwulatki tak mają fiszki",20,"19,99",5%
9788378432418,9788378432418,"Ciąża i poród niezbędnik Mamy",20,"19,99",5%
9788378432425,9788378432425,"Niemowlę instrukcja obsługi",20,"19,99",5%
9788362502912,9788362502912,"Gwiazda wschodu",20,"21,9",5%
9788362502936,9788362502936,"Ja, Maciejka",20,"23,9",5%
9788362502929,9788362502929,"Włoska podróż",20,"23,9",5%
9788362502424,9788362502424,"Połowa mężczyzny",20,"23,9",5%
9788365351210,9788365351210,"Dar serca",40,"23,9",5%
9788326952807,9788326952807,"Umowy zlecenia z kierowcami – jakie warunki trzeba spełnić, żeby ich zawieranie było korzystne",2,"24,71",5%
9788328704626,9788328704626,"Jestem tu i teraz projekt mindfulness",20,"24,9",5%
9788325588717,9788325588717,"Prawo rodzinne i nieletnich w pigułce",10,"24,9",5%
9788325588694,9788325588694,"Prawo i postępowanie administracyjne w pigułce",10,"24,9",5%
9788325586461,9788325586461,"Kodeks karny. Kodeks postępowania karnego. Edycja Prokuratorska",10,"24,9",5%
9788380790810,9788380790810,"Bóg liczy łzy kobiet",40,"24,9",5%
9788325578534,9788325578534,"Podstawy prawa i wiedzy o społeczeństwie w pigułce",10,"24,9",5%
9788325580391,9788325580391,"Prawo konstytucyjne w pigułce",10,"24,9",5%
9788325580438,9788325580438,"Prawo Unii Europejskiej w pigułce",10,"24,9",5%
9788325580414,9788325580414,"Prawo pracy i ubezpieczeń społecznych w pigułce",10,"24,9",5%
9788325580452,9788325580452,"Prawo karne w pigułce",6,"24,9",5%
9788325555108,9788325555108,"Prawo rzymskie w pigułce",10,"24,9",5%
9788325562557,9788325562557,"Logika w pigułce",5,"24,9",5%
9788375567502,9788375567502,"Dyplom z internetu. Jak korzystać z internetu pisząc prace dyplomowe?",2,"24,91",5%
9788380851832,9788380851832,"Egzamin zawodowy Testy i zadania z rozwiązaniami Kwalifikacja Z.13",1,25,5%
9788380851849,9788380851849,"Egzamin zawodowy Testy i zadania z rozwiązaniami Kwalifikacja A.28 i A.29",1,25,5%
9788362502813,9788362502813,"Wolę Ciebie",40,"25,9",5%
9788362502721,9788362502721,"Dalia",20,"25,9",5%
9788365351029,9788365351029,"Szepty miłości",20,"25,9",5%
9788380851580,9788380851580,"Bankowość bez tajemnic",1,26,5%
9788380316942,9788380316942,"Dziewczyna z pociągu",30,"26,9",5%
9788362502431,9788362502431,"Opowieść o dwóch meczach i morderstwie",20,"26,9",5%
9788310119575,9788310119575,"Dzieci z Bullerbyn",20,"26,9",5%
9788365125026,9788365125026,"Nakarmić kamień",20,27,5%
9788375566482,9788375566482,"Zasady rachunkowości Teoria przykłady zadania",2,28,5%
9788372519634,9788372519634,"Odkryj w sobie kreatywność",1,29,5%
9788375567458,9788375567458,"Wzory i tablice",5,29,5%
9788374409070,9788374409070,"Nowa ustawa o centralizacji rozliczeń VAT z komentarzem",2,29,5%
9788362610419,9788362610419,"Szału nie ma jest rak",30,"29,4",5%
9788325588670,9788325588670,"Prawo cywilne w pigułce",10,"29,9",5%
9788362502455,9788362502455,"Błękitne lato",20,"29,9",5%
9788362502677,9788362502677,"Dwie Anny",40,"29,9",5%
9788325584931,9788325584931,"Prawo finansowe w pigułce",5,"29,9",5%
9788325584917,9788325584917,"Prawo handlowe w pigułce",10,"29,9",5%
9788325585303,9788325585303,"Postępowanie cywilne w pigułce",10,"29,9",5%
9788325584955,9788325584955,"Prawo gospodarcze publiczne w pigułce",5,"29,9",5%
9788325584979,9788325584979,"Postępowanie karne w pigułce",10,"29,9",5%
9788325585259,9788325585259,"Prawo o adwokaturze",5,"29,9",5%
9788365351050,9788365351050,"Echa przeszłości",20,"29,9",5%
9788365351074,9788365351074,"Miłość w spadku",20,"29,9",5%
9788377854648,9788377854648,"Portret Doriana Graya",5,"29,9",5%
9788362965175,9788362965175,"Naciśnij mnie",30,"29,9",5%
9788362502752,9788362502752,"Rodzinny sekret",40,"29,9",5%
9788362502622,9788362502622,"Zapach konwalii",20,"29,9",5%
9788376742397,9788376742397,"Chłopiec w pasiastej piżamie",20,"29,9",5%
9788362268955,9788362268955,"Na skraju piekła Opowiadania i reportaże z Kresów",30,"29,9",5%
9788362502905,9788362502905,"Dwórka królowej",10,"29,9",5%
9788375063516,9788375063516,"Saga Sigrun",10,"29,9",5%
9788375064650,9788375064650,"Ja jestem Halderd",10,"29,9",5%
9788325562618,9788325562618,"Powszechna historia państwa i prawa w pigułce",5,"29,9",5%
9788325562595,9788325562595,"Historia ustroju i prawa Polski w pigułce",5,"29,9",5%
9788326955020,9788326955020,"Umowa zlecenia Bezpieczne i niebezpieczne zapisy 2017",2,"29,9",5%
9788326955044,9788326955044,"Prawa i obowiązki zleceniobiorcy 2017",2,"29,9",5%
9788362502981,9788362502981,"W objęciach gwiazd",40,"29,9",5%
9788326955068,9788326955068,"Składki i podatek przy umowach cywilnoprawnych 2017",2,"29,9",5%
9788326955051,9788326955051,"Zasiłek chorobowy zleceniobiorcy Czym różni się od zasiłku pracownika 2017",2,"29,9",5%
9788326955037,9788326955037,"Kiedy można podpisać umowę o dzieło a kiedy jest możliwe jedynie zlecenie 2017",2,"29,9",5%
9788362502875,9788362502875,"Pensjonat Czerwone Maki",10,"29,99",5%
9788362502899,9788362502899,"Jutro pachnie cynamonem",20,"29,99",5%
9788380151697,9788380151697,"Poldark Jeremy Poldark",20,"29,99",5%
9788365351166,9788365351166,"Bez pamięci",40,30,5%
9788365230089,9788365230089,"Proszę mnie przytulić",20,30,5%
9788376411484,9788376411484,"Trening koncentracji dla uczniów",5,30,5%
9788376413037,9788376413037,"Oswoić ADHD",4,30,5%
9788326953125,9788326953125,"Informator kadrowego 2016",2,"30,45",5%
9788375566246,9788375566246,"Niestandardowy podręcznik do rachunkowości",2,31,5%
9788362502608,9788362502608,"Orły i wrony",30,"31,9",5%
9788376410944,9788376410944,"Poznanie przez działanie gry i zabawy wspomagające rozwój dziecka.",4,32,5%
9788365351142,9788365351142,"Sekretne lato",20,"32,9",5%
9788365351135,9788365351135,"Gang różowych kapeluszy",20,"32,9",5%
9788365351104,9788365351104,"Miłość w kolorze sepii",20,"32,9",5%
9788324039500,9788324039500,"Charlie i fabryka czekolady",20,"32,9",5%
9788365351111,9788365351111,"Pałacyk za mostem",20,"32,9",5%
9788327710376,9788327710376,"Grunt pod nogami",50,"32,9",5%
9788365351098,9788365351098,"Dama z fontanny",20,"32,9",5%
9788376860664,9788376860664,"Zwiadowcy Księga 1 Ruiny Gorlanu",10,"32,9",5%
9788362502128,9788362502128,"Przeklęta",20,"32,9",5%
9788365351180,9788365351180,"Dwór Anny",20,"32,91",5%
9788379857586,9788379857586,"Ta chwila",50,33,5%
9788364855634,9788364855634,"Dość kato-lipy",30,33,5%
9788376413006,9788376413006,"Ja i grupa Trening dla uczniów",4,33,5%
9788380694613,9788380694613,"Granat poproszę",30,33,5%
9788365351203,9788365351203,"Widmo grzechu",190,"33,9",5%
9788328704602,9788328704602,"Nieperfekcyjna mama",20,"34,9",5%
9788365521002,9788365521002,"Urodzeni, by przegrać",10,"34,9",5%
9788375151879,9788375151879,"Sekretne życie drzew",98,"34,9",5%
9788327711632,9788327711632,"Dasz radę",150,"34,9",5%
9788376745435,9788376745435,"Bunt mas",20,"34,9",5%
9788325588298,9788325588298,"Kodeks cywilny. Kodeks postępowania cywilnego. Edycja Sędziowska",5,"34,9",5%
9788380531383,9788380531383,"Żyj szybko kochaj głęboko",10,"34,9",5%
9788327155559,9788327155559,"Nerve",10,"34,9",5%
9788375154047,9788375154047,"Wyśnione miejsca",20,"34,9",5%
9788374206563,9788374206563,"Wszyscy ziewają",20,"34,9",5%
9788377859957,9788377859957,"Błąd",20,"34,9",5%
9788365349651,9788365349651,"Demonolodzy. Ed i Lorraine Warren",20,"34,9",5%
9788324037186,9788324037186,"Idealna",40,"34,9",5%
9788380790766,9788380790766,"Drzewa pychy i inne opowiadania",30,"34,9",5%
9788376745305,9788376745305,"Ojciec Brown",16,"34,9",5%
9788380315884,9788380315884,"Zanim się pojawiłeś",30,"34,9",5%
9788365087362,9788365087362,"Kto zjadł biedronkę",20,"34,9",5%
9788376745190,9788376745190,"NOC PERSEIDÓW",18,"34,9",5%
9788365351081,9788365351081,"Chata pod jemiołą",20,"34,9",5%
9788376744742,9788376744742,"Wizja",5,"34,9",5%
9788379762996,9788379762996,"Zaginięcie",30,"34,9",5%
9788362502950,9788362502950,"Bezlitosne ostrze pamięci",20,"34,9",5%
9788379762477,9788379762477,"Kasacja",40,"34,9",5%
9788362829064,9788362829064,"Dziecko z bliska",20,"34,9",5%
9788327710123,9788327710123,"Życie na pełnej petardzie",50,"34,9",5%
9788377853924,9788377853924,"Bridget Jones Szalejąc za facetem",10,"34,9",5%
9788376745480,9788376745480,"Miód na serce",36,"34,9",5%
9788308061909,9788308061909,"Jeszcze jeden oddech",100,"34,9",5%
9788308062128,9788308062128,"Topielica",10,"34,9",5%
9788376745503,9788376745503,"Niemy strach",20,"34,9",5%
9788376745510,9788376745510,"Anna Nowe życie",18,"34,9",5%
9788380694439,9788380694439,"Jestem żoną szejka",40,35,5%
9788380082533,9788380082533,"Osobliwy dom Pani Peregrine",30,35,5%
9788372786463,9788372786463,"Osobliwy dom pani Peregrine",20,35,5%
9788376411460,9788376411460,"Uzależnienia komputerowe Diagnoza, rozpowszechnienie, terapia",1,35,5%
9788376416540,9788376416540,"Mój złośnik. Czyli jak nauczyć dzieci mądrego radzenia sobie ze złością",1,35,5%
9788372519580,9788372519580,"Śmiało przez życie Asertywność dla kobiet",1,35,5%
9788365521637,9788365521637,"Gra w kości",20,"35,9",5%
9788377859490,9788377859490,"Dubaj Prawdziwe oblicze",20,"35,9",5%
9788376745213,9788376745213,"LOKAL DLA AWANTURNYCH",36,"35,9",5%
9788377858592,9788377858592,"Układ",10,"35,9",5%
9788376745497,9788376745497,"Krew nie woda Polskie zapiski współczesne",80,"35,9",5%
9788380693500,9788380693500,"Nienachalna z urody",20,36,5%
9788380694460,9788380694460,"Lepsza połowa",20,36,5%
9788365506405,9788365506405,"Manwhore",20,"36,9",5%
9788379246205,9788379246205,"DZIEWCZYNA Z DZIELNICY CUDÓW NIKITA TOM 1",20,"36,9",5%
9788324043415,9788324043415,"Mock",50,"36,9",5%
9788380751453,9788380751453,"Jak pies z kotem Tom 2 Weranda na Czarcim Cyplu",20,"36,9",5%
9788379765102,9788379765102,"Immunitet",50,"36,9",5%
9788380751415,9788380751415,"Wybacz mi",30,"36,9",5%
9788324036356,9788324036356,"Beduinki na Instagramie",30,"36,9",5%
9788365341167,9788365341167,"Wiosna na ulicy Czereśniowej",30,"36,9",5%
9788365341181,9788365341181,"Jesień na ulicy Czereśniowej",30,"36,9",5%
9788365341150,9788365341150,"Zima na ulicy Czereśniowej",30,"36,9",5%
9788365341174,9788365341174,"Lato na ulicy Czereśniowej",30,"36,9",5%
9788365521156,9788365521156,"Mroczniejszy odcień magii",16,"36,9",5%
9788365122087,9788365122087,"Las tajemnic Wojownicy TOM 3",10,"36,9",5%
9788380751026,9788380751026,"Trawers Seria z komisarzem Forstem",30,"36,9",5%
9788324035908,9788324035908,"Sekrety urody Koreanek",40,"36,9",5%
9788379763979,9788379763979,"REWIZJA",40,"36,9",5%
9788362502974,9788362502974,"Płomień wspomnień",30,"36,9",5%
9788324039265,9788324039265,"Wierszyki domowe",20,"36,9",5%
9788363696405,9788363696405,"Noc na ulicy Czereśniowej",30,"36,9",5%
9788380750722,9788380750722,"PRZEWIESZENIE",30,"36,9",5%
9788380750210,9788380750210,"Ekspozycja",30,"36,9",5%
9788377851432,9788377851432,"Wieża komunistów",12,"36,9",5%
9788379246953,9788379246953,"Prawdodziejka",20,"36,9",5%
9788379247011,9788379247011,"Ślady",30,"36,9",5%
9788380751569,9788380751569,"Jabłoniowy Sad Spełnione marzenia",20,"36,9",5%
9788365456236,9788365456236,"Alicja w krainie czasów 2",30,"36,9",5%
9788380751446,9788380751446,"Czary codzienności Tom 2 Przyjaciele i rywale",30,"36,9",5%
9788324036783,9788324036783,"Ch***owa pani domu",30,"36,9",5%
9788379857685,9788379857685,"Spójrz na mnie",30,"36,9",5%
9788376745428,9788376745428,"Otulone ciemnością",14,"36,9",5%
9788380751606,9788380751606,"Behawiorysta",100,"36,9",5%
9788380313712,9788380313712,"Słowik",50,"36,9",5%
9788380751613,9788380751613,"Pracownia dobrych myśli",30,"36,9",5%
9788327620736,9788327620736,"Załącznik",20,"36,99",5%
9788327620620,9788327620620,"Nie poddawaj się",10,"36,99",5%
9788380850958,9788380850958,"Z Sherlockiem Holmesem o dedukcji, indukcji, życiu i innych ważnych sprawach",1,37,5%
9788328702592,9788328702592,"Emocjonalne SOS",30,37,5%
9788324159161,9788324159161,"Nasze olśnienie",10,"37,8",5%
9788324159697,9788324159697,"Flirt tom 1 serii klub",10,"37,8",5%
9788324036523,9788324036523,"Chcieć mniej minimalizm w praktyce",20,"37,9",5%
9788376864594,9788376864594,"Rywalki 5 Korona",20,"37,9",5%
9788376862873,9788376862873,"Jedyna",10,"37,9",5%
9788376863689,9788376863689,"Następczyni",20,"37,9",5%
9788376862453,9788376862453,"Elita",10,"37,91",5%
9788361386407,9788361386407,"Lek na śmierć",10,"37,91",5%
9788376861289,9788376861289,"Rywalki",10,"37,91",5%
9788365521767,9788365521767,"Para zza ściany",10,"37,91",5%
9788379306428,9788379306428,"Rysunek w arteterapiach, twórczości i sztuce",1,38,5%
9788379306558,9788379306558,"Dziecko z zespołem Aspergera",1,38,5%
9788375567335,9788375567335,"Księgowość w małej i średniej firmie uproszczone formy ewidencji + CD",2,38,5%
9788372517623,9788372517623,"Zgoda w rodzinie, czyli dobre dialogi",1,38,5%
9788308062074,9788308062074,"Wołyń '43",10,38,5%
9788365351197,9788365351197,"Miłość i aspiryna",20,"38,9",5%
9788326951367,9788326951367,"Lokowanie kapitału a podatki",5,"38,9",5%
9788365568151,9788365568151,"Remy",30,"38,9",5%
9788380082298,9788380082298,"Biblioteka dusz",30,39,5%
9788325589189,9788325589189,"Mordowanie na ekranie",50,39,5%
9788325586362,9788325586362,"Kodeks postępowania administracyjnego oraz ustawy towarzyszące",10,39,5%
9788325586386,9788325586386,"Kodeks cywilny. Kodeks rodzinny i opiekuńczy oraz ustawy towarzyszące",10,39,5%
9788325586409,9788325586409,"Kodeks pracy oraz ustawy towarzyszące",10,39,5%
9788326952654,9788326952654,"Inwestowanie w czasach bessy",3,39,5%
9788380082281,9788380082281,"Harry potter i przeklęte dziecko",350,39,5%
9788375568592,9788375568592,"Jak założyć i prowadzić własną firmę",2,39,5%
9788326951343,9788326951343,"Inwestowanie w nieruchomości Bezpieczna lokata kapitału",2,39,5%
9788326951350,9788326951350,"Inwestowanie na rynku walutowym Jak oswoić ryzyko",2,39,5%
9788380081857,9788380081857,"Silver",20,39,5%
9788326951336,9788326951336,"Inwestycje alternatywne",3,39,5%
9788326951329,9788326951329,"Fundusze inwestycyjne",3,39,5%
9788375568271,9788375568271,"Infrastruktura techniczna w szpitalu - wspomaganie procesów eksploatacji",2,39,5%
9788375566598,9788375566598,"Wine banking",3,39,5%
9788375566192,9788375566192,"Socjologia designu",2,39,5%
9788375562187,9788375562187,"Statystyka opisowa Przykłady i zadania",5,39,5%
9788379303670,9788379303670,"Arteterapie",1,39,5%
9788379303922,9788379303922,"Scenariusze zajęć i zabaw",4,39,5%
9788379306008,9788379306008,"Terapia logopedyczna",1,39,5%
9788379300617,9788379300617,"Nadzieja w życiu ludzi",1,39,5%
9788326951381,9788326951381,"Oszczędzanie na emeryturę",5,"39,01",5%
9788326951374,9788326951374,"Narzędzia i strategie - almanach inwestora",3,"39,01",5%
9788326952647,9788326952647,"Inwestowanie dla początkujących",3,"39,01",5%
9788379858866,9788379858866,"Spójrz na mnie",20,"39,5",5%
9788324157495,9788324157495,"Wierna",10,"39,8",5%
9788324159710,9788324159710,"Jeden pocałunek",10,"39,8",5%
9788380694491,9788380694491,"Panika",20,"39,9",5%
9788380790742,9788380790742,"Źródło i mielizny",30,"39,9",5%
9788365586070,9788365586070,"Belgravia",30,"39,9",5%
9788376745367,9788376745367,"W stronę marzeń",10,"39,9",5%
9788379454211,9788379454211,"Wyszłam z niemocy i depresji, ty też możesz",20,"39,9",5%
9788376745442,9788376745442,"Akcja „Wisła”",20,"39,9",5%
9788365521385,9788365521385,"Królowa",100,"39,9",5%
9788380751477,9788380751477,"Gus",30,"39,9",5%
9788380751408,9788380751408,"Przez niego zginę",20,"39,9",5%
9788376745398,9788376745398,"Latający słoń Dzieci księżyca",10,"39,9",5%
9788376745404,9788376745404,"Niepokonani",18,"39,9",5%
9788365521286,9788365521286,"Autostopem przez galaktykę",20,"39,9",5%
9788375152562,9788375152562,"Never Never",30,"39,9",5%
9788380493490,9788380493490,"Osiedle marzeń",40,"39,9",5%
9788327712080,9788327712080,"Sposób na (cholernie) szczęśliwe życie",20,"39,9",5%
9788365351159,9788365351159,"Jaśminowy sekret",20,"39,9",5%
9788375699005,9788375699005,"Benedykt XVI Ostatnie rozmowy",50,"39,9",5%
9788380751118,9788380751118,"Kiedy pada deszcz",10,"39,9",5%
9788380790780,9788380790780,"Lemingi 2.0 Schodzimy do podziemia",30,"39,9",5%
9788373996793,9788373996793,"Wojna, tajemnica, miłość",1,"39,9",5%
9788326953231,9788326953231,"Prawo pracy w spółce z o.o.",2,"39,9",5%
9788376745237,9788376745237,"Kamienie elfów Shannary Kroniki Shannary Tom 2",10,"39,9",5%
9788380751002,9788380751002,"Promyczek",30,"39,9",5%
9788324035731,9788324035731,"Kiedy odszedłeś",50,"39,9",5%
9788376745275,9788376745275,"Klęska gauleitera",12,"39,9",5%
9788377859599,9788377859599,"Harda",48,"39,9",5%
9788326950803,9788326950803,"Dotacje unijne dla NGO",2,"39,9",5%
9788380751293,9788380751293,"Powietrze, którym oddycha",20,"39,9",5%
9788374407915,9788374407915,"Kodeks Cywilny",2,"39,9",5%
9788376745220,9788376745220,"Kroniki Shannary Miecz Shannary",10,"39,9",5%
9788365351067,9788365351067,"Złoty zapach wrzosu",20,"39,9",5%
9788364347368,9788364347368,"W domu, w dziczy, na ulicy",30,"39,9",5%
9788310129291,9788310129291,"Opowiem ci, mamo, co robią koty",35,"39,9",5%
9788376744896,9788376744896,"Młokos i diabeł / Cierpienie złamanego serca",10,"39,9",5%
9788364095757,9788364095757,"Dziewczyny wyklęte",10,"39,9",5%
9788365351036,9788365351036,"Anatomia uległości",20,"39,9",5%
9788365087126,9788365087126,"Alaantkowe BLW",30,"39,9",5%
9788376426389,9788376426389,"Jaglany detoks",20,"39,9",5%
9788376744162,9788376744162,"Szepty",5,"39,9",5%
9788379881321,9788379881321,"Dziesięć płytkich oddechów",10,"39,9",5%
9788363960131,9788363960131,"Niesamowite przygody dziesięciu skarpetek",30,"39,9",5%
9788377851371,9788377851371,"Niewidzialna korona",10,"39,9",5%
9788380750098,9788380750098,"Kochając Pana Danielsa",10,"39,9",5%
9788377852712,9788377852712,"Smak wojny",12,"39,9",5%
9788377855317,9788377855317,"Korona śniegu i krwi Odrodzone Królestwo Tom 1",10,"39,9",5%
9788310127532,9788310127532,"Opowiem ci, mamo, co robią auta",20,"39,9",5%
9788377859728,9788377859728,"Herbatka o piątej!",5,"39,9",5%
9788380751583,9788380751583,"Raze",20,"39,9",5%
9788380790865,9788380790865,"Tsunami historii jak żywioły pryrody wpływały na historię powszechną",50,"39,9",5%
9788380493735,9788380493735,"Dzieci Norwegii. O państwie (nad)opiekuńczym",30,"39,9",5%
9788380321144,9788380321144,"Bracia Burgess",20,"39,9",5%
9788393584796,9788393584796,"Wołyń. Bez komentarza",50,"39,9",5%
9788310128720,9788310128720,"Fortuna i namiętności Zemsta",20,"39,9",5%
9788365456267,9788365456267,"Jedz i pracuj 2",20,"39,9",5%
9788380321182,9788380321182,"Sprzedawca arbuzów",50,"39,9",5%
9788365087744,9788365087744,"Self Reg",69,"39,9",5%
9788360279663,9788360279663,"Korzenie nienawiści",10,"39,9",5%
9788393584772,9788393584772,"Sarmacja",30,"39,9",5%
9788376745565,9788376745565,"Gdy ucicha ocean",20,"39,9",5%
9788365676122,9788365676122,"Północna Droga Tom 4 Trzy młode pieśni",10,"39,9",5%
9788380694668,9788380694668,"Dla duszy - gram",10,"39,9",5%
9788380790872,9788380790872,"Mity medyczne, które mogą zabić. Fakty, które ratują życie",50,"39,9",5%
9788328116764,9788328116764,"The Superior Spider-Man: Zło konieczne Tom 5",10,"39,99",5%
9788328116696,9788328116696,"Uncanny avengers: bliźnięta apokalipsy tom 2",10,"39,99",5%
9788326823947,9788326823947,"Sługi boże",20,"39,99",5%
9788375152623,9788375152623,"Bez winy",30,"39,99",5%
9788328116788,9788328116788,"Avengers T.4 Nieskończoność",10,"39,99",5%
9788328116795,9788328116795,"New Avengers T.2 Nieskończoność",10,"39,99",5%
9788380850019,9788380850019,"Czas wolny małych dzieci w świecie realnym i wirtualnym",1,40,5%
9788380851313,9788380851313,"Książka artystyczna w arteterapii",1,40,5%
9788375568059,9788375568059,"Przewodnik po zadaniach z makroekonomii",2,40,5%
9788379308439,9788379308439,"Kompetencje mediacyjne w profesji pracownika socjalnego",1,40,5%
9788380851504,9788380851504,"Nowoczesne wojny informacyjne",1,"40,01",5%
9788380850934,9788380850934,"Praca dyplomowa z bezpieczeństwa. Wprowadzenie do badań",1,"40,01",5%
9788379309085,9788379309085,"Reklama wczoraj i dziś",1,"40,01",5%
9788380850774,9788380850774,"Vademecum logistyki",1,"40,01",5%
9788379309658,9788379309658,"Psychologia dla fizjoterapeutów i masażystów",1,"40,01",5%
9788376418421,9788376418421,"Arteterapia i warsztaty edukacji twórczej",1,"40,01",5%
9788380852693,9788380852693,"Teatr Forum",1,"40,01",5%
9788328703834,9788328703834,"Lampiony",200,"41,9",5%
9788380850224,9788380850224,"Arteterapia w działaniu. Propozycje warsztatów i działań arteterapeutycznych",1,42,5%
9788380852037,9788380852037,"Przekonania stereotypy nawyki. Ich wpływ na nasze życie",1,42,5%
9788379309825,9788379309825,"Był z nami",1,42,5%
9788379306381,9788379306381,"Mentalizacja w kontekście przywiązania. Zdolność do rozumienia siebie i innych u",1,42,5%
9788379307142,9788379307142,"Filmoterapia scenariusze zajęć w edukacji filmowej dzieci i dorosłych",1,42,5%
9788379302413,9788379302413,"Osoby niepełnosprawne w sytuacji zagrożenia",1,42,5%
9788379305186,9788379305186,"Rysunek dziecka",1,42,5%
9788376416809,9788376416809,"Zaradnik terapeutyczny",1,42,5%
9788324160143,9788324160143,"Oko niebios",10,"42,8",5%
9788375780598,9788375780598,"Sezon burz Wiedźmin",10,"42,9",5%
9788379307272,9788379307272,"Magiczny świat baśni i bajek. Metafory i symbole w procesie wspomagania dziecka w rozwoju",1,43,5%
9788376415604,9788376415604,"Zarządzanie kryzysowe",1,43,5%
9788376413198,9788376413198,"ABC kreatywności",1,43,5%
9788324043187,9788324043187,"Sprawiedliwi zdrajcy",30,"43,16",5%
9788375564471,9788375564471,"Wycena małego przedsiębiorstwa",2,44,5%
9788375566475,9788375566475,"ABC sprawozdań finansowych Jak je czytaćinterpretować i analizować",2,44,5%
9788379307531,9788379307531,"Zdrowie psychiczne młodych dorosłych",2,44,5%
9788376416892,9788376416892,"Zachowania innowacyjne w pracy",1,44,5%
9788375569186,9788375569186,"Zarządzanie motywacją pracowników",5,44,5%
9788326955358,9788326955358,"Elektryczne ogrzewanie i ochrona przed mrozem w budynkach mieszkalnych",3,"44,5",5%
9788376744865,9788376744865,"Ocalałem z Buchenwaldu",10,"44,9",5%
9788380493506,9788380493506,"Bieżeństwo 1915",10,"44,9",5%
9788393584734,9788393584734,"Dziewczyny od Andersa",40,"44,9",5%
9788365282897,9788365282897,"Meryl Streep",30,"44,9",5%
9788324043088,9788324043088,"Metafizyczny harem kobiety witkacego",38,"44,9",5%
9788376745176,9788376745176,"Prawdziwa Odessa",12,"44,9",5%
9788360297667,9788360297667,"Królewicz i Minstrel",10,"44,9",5%
9788380530942,9788380530942,"Zdrowe gotowanie by Ann",100,"44,9",5%
9788310130242,9788310130242,"Rok w przedszkolu",20,"44,9",5%
9788375153927,9788375153927,"ÓSME ŻYCIE TOM 1",30,"44,9",5%
9788308061060,9788308061060,"Historia Pszczół",40,"44,9",5%
9788380790582,9788380790582,"Dziewczyny Wyklęte 2",40,"44,9",5%
9788376745022,9788376745022,"Kroniki Shannary Pieśń Shannary",12,"44,9",5%
9788365282705,9788365282705,"SAGA PUSZCZY BIAŁOWIESKIEJ",10,"44,9",5%
9788361443117,9788361443117,"Beksiński - dzień po dniu kończącego się życia",30,"44,9",5%
9788310127136,9788310127136,"Rok w lesie",30,"44,9",5%
9788375780642,9788375780642,"Wiedźmin Miecz przeznaczenia",10,"44,9",5%
9788375780673,9788375780673,"Wiedźmin. Chrzest ognia (tom V)",10,"44,9",5%
9788375780659,9788375780659,"Wiedźmin. Krew elfów (tom III)",20,"44,9",5%
9788375780666,9788375780666,"Wiedźmin 2 czas pogardy",10,"44,9",5%
9788308050118,9788308050118,"MORFINA",20,"44,9",5%
9788324028740,9788324028740,"Beksińscy",40,"44,9",5%
9788377787281,9788377787281,"Jak zdrowo i pięknie żyć, czyli ekoporadnik",20,"44,9",5%
9788328703964,9788328703964,"Sympatyk",10,"44,9",5%
9788308062241,9788308062241,"Król",100,"44,9",5%
9788375154061,9788375154061,"Ósme życie Tom 2",40,"44,9",5%
9788324041213,9788324041213,"Pilch w sensie ścisłym",30,"44,9",5%
9788328026902,9788328026902,"Wołyń siła traumy",30,"44,99",5%
9788326823930,9788326823930,"Kukuczka",40,"44,99",5%
9788325586379,9788325586379,"Prawo konstytucyjne oraz ustawy towarzyszące",10,45,5%
9788325586416,9788325586416,"Kodeks spółek handlowych oraz ustawy towarzyszące",10,45,5%
9788325586393,9788325586393,"Kodeks postępowania cywilnego oraz ustawy towarzyszące",10,45,5%
9788375568912,9788375568912,"Finansjalizacja w ochronie zdrowia",2,45,5%
9788375568783,9788375568783,"Zarządzanie motywacją ekspertów - na przykładzie specjalistów z branży IT",5,45,5%
9788380851733,9788380851733,"Wdrażanie systemu ochrony danych osobowych",1,45,5%
9788380852204,9788380852204,"Psychologia w pracy terapeuty zajęciowego",1,45,5%
9788375568417,9788375568417,"Finansjalizacja - wpływ na gospodarkę i społeczeństwo",2,45,5%
9788325585471,9788325585471,"Kodeks karny oraz ustawy towarzyszące",10,45,5%
9788379309108,9788379309108,"Przestępczy seks",2,45,5%
9788377856697,9788377856697,"Turniej cieni (oprawa miękka)",10,45,5%
9788375567748,9788375567748,"Socjoekonomika starzenia się współczesnych społeczeństw",2,45,5%
9788379309481,9788379309481,"Młodzież w społeczeństwie wielokulturowym",1,45,5%
9788380850163,9788380850163,"Jak zwiększyć skuteczność szkolnej edukacji",1,45,5%
9788379308996,9788379308996,"Dziecko a rozwód",1,45,5%
9788377854945,9788377854945,"Cichy pucz",20,45,5%
9788379308347,9788379308347,"Rola wyobrażeń w osiąganiu celów",1,45,5%
9788326822155,9788326822155,"1945 Wojna i pokój",40,45,5%
9788379307227,9788379307227,"Skuteczne zarządzanie kryzysowe",1,45,5%
9788379306930,9788379306930,"Mediacja rodzinna",1,45,5%
9788379303359,9788379303359,"Od teatru pedagogicznego do teatru terapeutycznego",1,45,5%
9788379302697,9788379302697,"Seksualność dzieci i młodzieży",1,45,5%
9788379305551,9788379305551,"Podstawy ratownictwa taktycznego",7,45,5%
9788375565164,9788375565164,"Analiza finansowa w przedsiębiorstwie",2,45,5%
9788377857908,9788377857908,"Semka się gotuje",10,45,5%
9788375568721,9788375568721,"Mechanizmy szarej strefy",2,45,5%
9788375568639,9788375568639,"Edukacja ekonomiczna polskiego społeczeństwa",2,46,5%
9788375568899,9788375568899,"Jak założyć i prowadzić działalność gospodarczą w Polsce i wybranych krajach europejskich",2,46,5%
9788375568868,9788375568868,"Dyskurs i narracja w kontekście nowych mediów",2,46,5%
9788380850842,9788380850842,"Wypalenie zawodowe nauczycieli",1,46,5%
9788380851122,9788380851122,"Prawo dla fizjoterapeutów",1,46,5%
9788380851047,9788380851047,"Jak zwiększyć skuteczność szkolnej edukacji",1,46,5%
9788379308019,9788379308019,"Wychowanie przez zabawę",4,46,5%
9788379309788,9788379309788,"Pedagogika opiekuńcza",1,46,5%
9788375567366,9788375567366,"Stres w pracy menedżera",2,46,5%
9788379305575,9788379305575,"Bezdomność. Modele pracy socjalnej. Wsparcie psychologiczne",1,46,5%
9788379305988,9788379305988,"Jak rozwijać aktywność twórczą dzieci i młodzieży",1,46,5%
9788380851351,9788380851351,"Zabawy i gry ruchowe aktywizujące mięśnie tułowia",3,46,5%
9788380852716,9788380852716,"Pamięć sensoryczna czyli myśleć ciałem",1,46,5%
9788375780680,9788375780680,"Wieża jaskółki",10,"46,9",5%
9788375780697,9788375780697,"Wiedźmin. Pani jeziora (tom VII)",10,"46,9",5%
9788380852655,9788380852655,"Bezpieczeństwo w wymiarze lokalnym",1,47,5%
9788394078300,9788394078300,"Ukryte terapie. czego ci lekarz nie powie",50,47,5%
9788376413754,9788376413754,"Trening pamięci. Projektowanie, realizacja, techniki i ćwiczenia.",2,47,5%
9788326955419,9788326955419,"Elektryczne ogrzewanie i ochrona przed mrozem w budynkach mieszkalnych",2,"47,7",5%
9788380852426,9788380852426,"Zarządzanie kryzysowe w administracji publicznej",1,48,5%
9788380852020,9788380852020,"Pedagogika serca",1,48,5%
9788375568646,9788375568646,"Finanse i polityka gospodarcza",2,48,5%
9788375567892,9788375567892,"Konflikty etniczne w Europie oraz w jej bezpośrednim otoczeniu po 1989 roku",2,48,5%
9788380850866,9788380850866,"Kompetencje",1,48,5%
9788380851023,9788380851023,"Wypalenie zawodowe w perspektywie wyzwań współczesnego świata",1,48,5%
9788375567809,9788375567809,"System ochrony zdrowia w Polsce",3,48,5%
9788375567328,9788375567328,"Indywidualna działalność gospodarcza",2,48,5%
9788379307746,9788379307746,"Mossad porażki i sukcesy tajnych służb izraelskich",1,48,5%
9788375569117,9788375569117,"Strumieniowanie energii klienta. Transmisja znaczeń",5,48,5%
9788380851542,9788380851542,"Ja patriota. Psychologia patriotyzmu",2,"48,01",5%
9788365521262,9788365521262,"Pod Baranami Ten szczęsny czas...",20,49,5%
9788326954498,9788326954498,"Czas pracy nauczycieli w roku szkolnym 2016/2017",5,49,5%
9788325588168,9788325588168,"Prawo nieruchomości Teksty Ustaw Becka",10,49,5%
9788365271204,9788365271204,"Miasto archipelag",100,49,5%
9788326953293,9788326953293,"Wzory pism do organów podatkowych z praktycznymi komentarzami",2,49,5%
9788374407946,9788374407946,"Jak wygrać przetarg - poradnik dla małych i średnich firm",3,49,5%
9788326953385,9788326953385,"Wzory pism do organów podatkowych z praktycznymi komentarzami",2,49,5%
9788380082274,9788380082274,"Harry potter i przeklęte dziecko",100,49,5%
9788374408035,9788374408035,"Odsetki w transakcjach handlowych",2,49,5%
9788374407373,9788374407373,"Rozporządzenia wykonawcze do ustawy o systemie ubezpieczeń społecznych 2016 z kom.",2,49,5%
9788374407601,9788374407601,"Zbiegi tytułów do ubezpieczeń po zmianach",2,49,5%
9788374407809,9788374407809,"Kodeks Karny Skarbowy",2,49,5%
9788374407175,9788374407175,"Rozporządzenia wykonawcze do ustawy zasiłkowej 2016 z kom.",2,49,5%
9788325585488,9788325585488,"Kodeks postępowania karnego oraz ustawy towarzyszące",10,49,5%
9788377858851,9788377858851,"Taniec ze smokami tom 1",10,49,5%
9788377858875,9788377858875,"Taniec ze smokami tom 2",10,49,5%
9788374407229,9788374407229,"Ustawa o rachunkowosci 2016",2,49,5%
9788374407427,9788374407427,"VAT 2016 - akty wykonawcze",2,49,5%
9788374407410,9788374407410,"Ordynacja podatkowa Ustawa o NIP",2,49,5%
9788374406895,9788374406895,"PDOF  i  PKPiR  2016",2,49,5%
9788374406741,9788374406741,"Ustawa o systemie ubezpieczeń społecznych 2016 z komentarzem",2,49,5%
9788374406840,9788374406840,"Ustawa o VAT 2016",2,49,5%
9788374406796,9788374406796,"Ustawa zasiłkowa 2016 z komentarzem",2,49,5%
9788374406628,9788374406628,"Rozporządzenia wykonawcze do Kodeksu pracy  2016 z komentarzem - wybór",2,49,5%
9788374407618,9788374407618,"Inne podatki 2016",2,49,5%
9788375564600,9788375564600,"Sztuka usługiwania. Jak zostać dobrym kelnerem",5,49,5%
9788379309801,9788379309801,"Vademecum planowania w zarządzaniu kryzysowym",1,49,5%
9788360089804,9788360089804,"Zarządzanie zmianą Od strategii do działania",2,49,5%
9788375565997,9788375565997,"Socialized! W jaki sposób najskuteczniej wykorzystać społeczność internetową",2,49,5%
9788379305889,9788379305889,"Psychopatologia człowieka dorosłego",1,49,5%
9788325527242,9788325527242,"Koktajl z paragrafów.",30,49,5%
9788375069693,9788375069693,"Starcie królów Tom 2",10,49,5%
9788375069808,9788375069808,"Biegnąca z wilkami",20,49,5%
9788394021306,9788394021306,"Adwokat diabła. krótki trakt o tym, jak być naprawdę dobrym w sądzie",20,49,5%
9788376417424,9788376417424,"Taktyka walki w terenie zurbanizowanym",7,49,5%
9788375566710,9788375566710,"Optymalizacja obsługi klienta",2,49,5%
9788375068306,9788375068306,"Gra o tron",20,49,5%
9788377859889,9788377859889,"Hipster",20,49,5%
9788326955679,9788326955679,"Urlop dla poratowania zdrowia w roku szkolnym 2016/2017",6,49,5%
9788376745473,9788376745473,"Doktorzy z piekła rodem",10,"49,9",5%
9788376745336,9788376745336,"Wołyń Wspomnienia ocalałych Tom 1",32,"49,9",5%
9788393584758,9788393584758,"Poza horyzont",40,"49,9",5%
9788380530621,9788380530621,"FIT SŁODKOŚCI",20,"49,9",5%
9788380790490,9788380790490,"Prezydent Lech Kaczyński 2005-2010",40,"49,9",5%
9788376745466,9788376745466,"Wołyń Wspomnienia ocalałych Tom 2",32,"49,9",5%
9788365521392,9788365521392,"Królowa",30,"49,9",5%
9788376745541,9788376745541,"Trainspotting zero",40,"49,9",5%
9788376745534,9788376745534,"Złamane skrzydła",20,"49,9",5%
9788377793145,9788377793145,"Wajda Kronika wypadków filmowych",46,"49,9",5%
9788326955709,9788326955709,"Prawo zamówień publicznych 2016 Rozporządzenia",5,"49,9",5%
9788376428048,9788376428048,"Perfekcyjne maniery",10,"49,9",5%
9788326943836,9788326943836,"Prawo zamówień publicznych 2016 Teksty ustaw i rozporządzeń",5,"49,9",5%
9788326955631,9788326955631,"Sprawozdanie finansowe organizacji pozarządowej za 2016 rok - krok po kroku",2,"49,9",5%
9788328021921,9788328021921,"Królowa cieni",20,"49,99",5%
9788380150263,9788380150263,"Jak nie umrzeć przedwcześnie",20,"49,99",5%
9788380852587,9788380852587,"Optymalizacja decyzji logistycznych",1,50,5%
9788380852099,9788380852099,"Polityka pamięci i kształtowanie tożsamości politycznej w czasie tranzycji postautorytarnej",1,50,5%
9788375568516,9788375568516,"Opieka geriatryczna w Polsce",10,50,5%
9788375562415,9788375562415,"Finanse małych i średnich firm",2,50,5%
9788380851184,9788380851184,"Wychowanie w praktyce szkolnej",1,50,5%
9788379309047,9788379309047,"Podstawy szkolenia taktycznego lekkiej piechoty",7,50,5%
9788379309368,9788379309368,"Tutoring w polskiej szkole",1,50,5%
9788375566949,9788375566949,"Bankowy rachunek wspólny dla osób fizycznych",2,50,5%
9788376416564,9788376416564,"Patologia analfabetyzmu emocjonalnego",1,50,5%
9788379300372,9788379300372,"Architektura wiedzy w szkole",1,50,5%
9788380852754,9788380852754,"Psychoterapia sprzyjająca mózgowi",1,50,5%
9788375568486,9788375568486,"Język reklamy",2,51,5%
9788375564976,9788375564976,"Od restrukturyzacji do modernizacji",2,51,5%
9788380852532,9788380852532,"Dziecko z dysmorfią twarzy",1,52,5%
9788375568493,9788375568493,"Zarządzanie reklamą",2,"52,01",5%
9788324521593,9788324521593,"Polski przewodnik PALEO",30,54,5%
9788380493315,9788380493315,"Plutopia",20,"54,9",5%
9788308062067,9788308062067,"Nieznośny ciężar braterstwa",10,"54,9",5%
9788375568660,9788375568660,"Opieka długoterminowa nad osobami starszymi",10,55,5%
9788375568585,9788375568585,"Umysł projektujący. Powstawanie nowej metodologii",2,55,5%
9788380851900,9788380851900,"Fundusze i programy Unii Europejskiej wspierające przedsiębiorstwa w perspektywie finansowej 2014-2020",1,55,5%
9788375568448,9788375568448,"Więź rodziców a kreatywność dzieci",5,55,5%
9788375568295,9788375568295,"Różnice kulturowe w biznesie",2,55,5%
9788380850125,9788380850125,"Edukacja osób starszych",1,55,5%
9788379309252,9788379309252,"Pedagogika podręcznik dla pierwszego stopnia kształcenia na poziomie wyższym",1,55,5%
9788379305360,9788379305360,"Zespół Aspergera",1,55,5%
9788379303557,9788379303557,"Bezpieczeństwo Polski. Współczesne wyzwania",1,55,5%
9788379308101,9788379308101,"Prawo ochrony danych osobowych. Podręcznik dla studentów i praktyków",1,"55,01",5%
9788375568691,9788375568691,"Bezpieczeństwo państwa a rozwój społeczno-gospodarczy. Aspekt regionalny i lokalny",5,56,5%
9788375568523,9788375568523,"Reakcja małych i średnich przedsiębiorstw na kryzys",2,56,5%
9788375568622,9788375568622,"Rynek inwestycji emocjonalnych",2,57,5%
9788380852297,9788380852297,"Państwo Islamskie. Narodziny nowego kalifatu?",1,58,5%
9788379309443,9788379309443,"Problemy jednostki i rodziny w obszarze stosowania prawa",1,58,5%
9788380852600,9788380852600,"Krajoznawstwo tradycja i współczesność",1,58,5%
9788326952692,9788326952692,"Szybkie wyszukiwanie danych w Excelu",3,59,5%
9788326952708,9788326952708,"Błyskawiczne porządkowanie danych z użyciem makr",2,59,5%
9788380852648,9788380852648,"Wywiad i kontrwywiad w polityce międzynarodowej na przełomie XX i XXI wieku",1,59,5%
9788375568745,9788375568745,"Marketing społeczny w krwiodawstwie",2,59,5%
9788365521279,9788365521279,"Krótka historia prawie wszystkiego",20,59,5%
9788377857106,9788377857106,"Pamięć Światłości",20,59,5%
9788374408318,9788374408318,"Przewodnik po zmianach przepisów 2016",2,59,5%
9788375568677,9788375568677,"Europejski Bank Centralny i nadzór fi nansowy w Unii Europejskiej a stabilność finansowa",2,59,5%
9788326952685,9788326952685,"Formatowanie warunkowe najlepsze triki",3,59,5%
9788374408028,9788374408028,"Klauzula przeciw unikaniu opodatkowania – praktyczny poradnik",2,59,5%
9788326952586,9788326952586,"21 wskazówek jak optymalizować koszty w transporcie drogowym. Zatrudnianie, podatki, leasing, zarządzanie",2,59,5%
9788325586348,9788325586348,"Kodeks cywilny. Kodeks postępowania cywilnego. Kodeks rodzinny i opiekuńczy. Koszty sądowe cywilne oraz inne akty prawne",10,59,5%
9788325587826,9788325587826,"Kodeks postępowania administracyjnego. Postępowanie egzekucyjne w administracji. Prawo o postępowaniu przed sądami administracyjnymi. Akty wykonawcze oraz związkowe.",10,59,5%
9788325586331,9788325586331,"Kodeks spółek handlowych. Krajowy Rejestr Sądowy. Monitor Sądowy i Gospodarczy. Prawo upadłościowe oraz inne akty prawne",10,59,5%
9788380851788,9788380851788,"Osobna kobieta a personalizm Karola Wojtyły Jana Pawła II",1,59,5%
9788325585464,9788325585464,"Kodeks karny. kodeks postępowania karnego. kodeks karny wykonawczy. koszty sądowe karne kodeks karny. kodeks postępowania karnego. kodeks karny wykonawczy. koszty sądowe karne",3,59,5%
9788375567724,9788375567724,"Koniec z makiawelistycznym zarządzaniem, od teraz podmiotowe przywództwo",2,59,5%
9788377858844,9788377858844,"Taniec ze smokami tom 1",10,59,5%
9788377858868,9788377858868,"Taniec ze smokami tom 2",10,59,5%
9788375531985,9788375531985,"Banksterzy Kulisy globalnej zmowy",10,59,5%
9788380081185,9788380081185,"Harry Potter i Kamień Filozoficzny (wyd. ilustrowane)",50,59,5%
9788375566406,9788375566406,"Dlaczego wszyscy (inni) są hipokrytami",3,59,5%
9788379300143,9788379300143,"Przygotowanie pracy dyplomowej z pedagogiki",1,59,5%
9788379304196,9788379304196,"Arteterapia. Część 1",1,59,5%
9788380082489,9788380082489,"Harry Potter i Komnata Tajemnic wyd. ilustrowane",40,59,5%
9788326955617,9788326955617,"Vat w branży budowlanej wyjaśnienia praktyczne",2,59,5%
9788375532166,9788375532166,"Repolonizacja Polski",10,59,5%
9788326956133,9788326956133,"Inwentaryzacja według nowego stanowiska KSR",3,59,5%
9788326955365,9788326955365,"Vat w branży transportowej wyjaśnienia praktyczne",2,"59,5",5%
9788324156610,9788324156610,"Trylogia Niezgodna",10,"59,8",5%
9788377312438,9788377312438,"Tomek Beksiński. Portret prawdziwy",100,"59,9",5%
9788326953989,9788326953989,"Krok po kroku przez nowelizację Prawa zamówień publicznych. Praktyczny komentarz do zmian z 22 czerwca",6,"59,9",5%
9788376745329,9788376745329,"Set maat siedlisko prawdy",10,"59,9",5%
9788365282767,9788365282767,"Cień góry",100,"59,9",5%
9788364347153,9788364347153,"Animalium",50,"59,9",5%
9788365282316,9788365282316,"Shantaram",100,"59,9",5%
9788379452583,9788379452583,"Biel Notatki z Afryki",20,"59,9",5%
9788363696559,9788363696559,"Pszczoły",20,"59,9",5%
9788364347931,9788364347931,"Rzeka czasu",20,"59,9",5%
9788326955723,9788326955723,"Sprawozdanie finansowe za 2016 rok Krok po kroku",2,"59,9",5%
9788326956157,9788326956157,"Specyfikacja istotnych warunków zamówienia Wzory zgodne z nowelizacją Prawa zamówień publicznych",2,"59,9",5%
9788328026483,9788328026483,"Małe życie",100,"59,99",5%
9788380852310,9788380852310,"Przestępczość socjalna z perspektywy prawa karnego i kryminologii",1,60,5%
9788380852402,9788380852402,"Pedagogika porównawcza",1,60,5%
9788375568530,9788375568530,"Przedsiębiorczość w sporcie",2,60,5%
9788379303342,9788379303342,"Cyberbezpieczeństwo jako podstawa bezpiecznego państwa i społeczeństwa w XXI wieku",1,60,5%
9788380852808,9788380852808,"Fenomen męskiej prostytucji w Polsce",2,60,5%
9788375568615,9788375568615,"Rynek inwestycji alternatywnych",2,"61,9",5%
9788380851061,9788380851061,"Podstawy prawoznawstwa",1,62,5%
9788375567885,9788375567885,"Komunikacja w zarządzaniu projektami",2,62,5%
9788379308125,9788379308125,"Taktyka rosyjskich pododdziałów rozpoznawczych",10,62,5%
9788379307999,9788379307999,"Konflikt społeczny w perspektywie socjologicznej i pedagogiczno-psychologicznej",1,62,5%
9788379304813,9788379304813,"Praca socjalna z osobą uzależnioną i jej rodziną",1,62,5%
9788376415741,9788376415741,"Oblicza złości. Perspektywa psychologów, psychiatrów i psychoterapeutów",1,63,5%
9788380851207,9788380851207,"Tworzenie systemu ochrony danych osobowych krok po kroku",1,63,5%
9788375568028,9788375568028,"Twoje domowe piwa",10,64,5%
9788376428376,9788376428376,"Minimalist baker prosto, smacznie, wegańsko",20,"64,9",5%
9788364347900,9788364347900,"Botanicum",50,"64,9",5%
9788365341051,9788365341051,"Pod ziemią, pod wodą",20,"64,9",5%
9788376428390,9788376428390,"Kiszonki i fermentacje",30,"64,9",5%
9788380851818,9788380851818,"Planowanie kariery a Interaktywna sieć zawodów",1,65,5%
9788380851719,9788380851719,"Wojny nieregularne Przeszłość i przyszłość",1,65,5%
9788375567977,9788375567977,"Podstawy rachunkowości",2,65,5%
9788379309023,9788379309023,"Zarządzanie kryzysowe na szczeblu samorządowym",1,65,5%
9788379307968,9788379307968,"Psychologia dla służb społecznych",1,65,5%
9788380852440,9788380852440,"Zarządzanie kryzysowe zintegrowane",1,65,5%
9788375567014,9788375567014,"Marketing produktów farmaceutycznych",5,66,5%
9788380852389,9788380852389,"Skarbnik korporacyjny",1,68,5%
9788375567670,9788375567670,"Motywowanie w erze Web 2.0+",2,68,5%
9788380851214,9788380851214,"Dokumentacja ochrony danych osobowych",1,68,5%
9788380851771,9788380851771,"Polityka pamięci i kształtowanie tożsamości politycznej",1,68,5%
9788326954856,9788326954856,"Zamknięcie roku 2016 w księgach instytucji kultury Praktyczna instrukcja",5,"68,25",5%
9788326953941,9788326953941,"Druki ZUS 2016 Zasady korekty Wypełnione druki",2,"68,25",5%
9788326952425,9788326952425,"Umowy terminowe po zmianach z 22 lutego 2016 r.",2,"68,25",5%
9788326951176,9788326951176,"Prawo pracy i ZUS w instytucjach kultury",2,"68,25",5%
9788326950025,9788326950025,"KSIĘGOWOŚĆ W INSTYTUCJACH KULTURY 2016 50 PYTAŃ Z PRAKTYKI",2,"68,25",5%
9788326955402,9788326955402,"Prawo pracy ZUS podatki w 2016 r. 10 zmian w przepisach - stan prawny na wrzesień 2016",5,"68,25",5%
9788326950674,9788326950674,"Czas pracy 2016 Przepisy z praktycznym komentarzem",2,"68,8",5%
9788326954269,9788326954269,"Zatrudnianie kierowców Umowy badania lekarskie i szkolenia dokumentacja",2,69,5%
9788375568103,9788375568103,"Handel międzynarodowy w rozwoju społeczno-ekonomicznym państw",2,69,5%
9788375568561,9788375568561,"Lokalizacja w offshoringu usług",2,69,5%
9788326953262,9788326953262,"25 dobrych praktyk zarządzania które zwiększą zyski placówki medycznej",2,69,5%
9788375568509,9788375568509,"Humanistyczne aspekty komunikowania w biznesie",2,69,5%
9788326950353,9788326950353,"Czas pracy kierowców po zmianach od 2 marca 2016",2,69,5%
9788375568172,9788375568172,"Migracje ekonomiczne w prawie i współpracy międzynarodowej. Wybrane aspekty instytucjonalno-prawne",2,69,5%
9788375567588,9788375567588,"Współczesne funkcje i mechanizmy transmisji między sektorem ubezpieczeniowym a sferą realną gospodarki",1,69,5%
9788375567861,9788375567861,"Diamenty",5,69,5%
9788379309542,9788379309542,"Ochrona danych osobowych w praktyce",1,69,5%
9788375568042,9788375568042,"Jakość usług medycznych. Instrumenty i modele",2,69,5%
9788375566840,9788375566840,"Złoto Śladami najbardziej pożądanego przez ludzkość metalu",2,69,5%
9788363696184,9788363696184,"Jadłonomia",20,69,5%
9788379304790,9788379304790,"Arteterapia Część 2",1,69,5%
9788326955495,9788326955495,"Przewozy na potrzeby własne 30 praktycznych wskazówek",2,69,5%
9788326954894,9788326954894,"Jak zapowiadać wydarzenia kulturalne w internecie by przyciągnąć i zaangażować odbiorców.Webriting",2,69,5%
9788380852563,9788380852563,"Event marketing w zintegrowanej komunikacji marketingowej",1,69,5%
9788326956140,9788326956140,"Kodeks pracy 2017 plus ustawa o minimalnym wynagrodzeniu za pracę",5,69,5%
9788326955884,9788326955884,"Ochrona Danych Osobowych w marketingu internetowym po zmianie przepisów",2,69,5%
9788326955006,9788326955006,"Jednolity Plik Kontrolny Nowe przepisy w praktyce",10,69,5%
9788308049396,9788308049396,"Księgi Jakubowe",20,"69,9",5%
9788365586391,9788365586391,"My New Roots",20,"69,9",5%
9788326952272,9788326952272,"Poradnik księgowo-płacowy 2016 dla jednostek sektora publicznego",2,"69,91",5%
9788328116771,9788328116771,"Nieskończoność",10,"69,99",5%
9788326951671,9788326951671,"Dokumentacja medyczna w podmiocie leczniczym",2,"74,8",23%
9788394574901,9788394574901,"Pacyfik i Eurazja. O wojnie",50,"74,9",5%
9788379300297,9788379300297,"Działania patrolowe lekkiej piechoty",7,75,5%
9788326952678,9788326952678,"40 najlepszych funkcji w Excelu, które każdy powinien znać",5,"78,8",5%
9788326954252,9788326954252,"30 kluczowych wskazówek, jak nie popełniać błędów prowadząc praktykę lekarską",2,79,5%
9788326952715,9788326952715,"Excel w firmie praktyczne rozwiązania",3,79,5%
9788326953965,9788326953965,"Ochrona danych medycznych i osobowych pacjentów",2,79,5%
9788374408288,9788374408288,"Jednolity Plik Kontrolny – praktyczny poradnik",3,79,5%
9788326952661,9788326952661,"Raportowanie w Excelu - Szybka analiza danych",2,79,5%
9788375567960,9788375567960,"Rachunkowość finansowa - od teorii do praktyki",2,79,5%
9788326949883,9788326949883,"Makra w Excelu Pracuj szybciej i wykonaj to co niemożliwe",3,79,5%
9788326949869,9788326949869,"45 trików w excelu na formatowanie i porządkowanie danych",2,79,5%
9788326949876,9788326949876,"Wykresy w Excelu Praktyczne przykłady i sprytne triki",2,79,5%
9788326949852,9788326949852,"EXCEL DLA ZAAWANSOWANYCH W PIGUŁCE NAUCZ SIĘ SZYBKO KORZYSTAĆ ZE ZŁOŻONYCH FUNKCJI EXCEL ZAAWANSOWANY",3,79,5%
9788375567663,9788375567663,"Współczesna polityka gospodarcza",2,79,5%
9788375566048,9788375566048,"Rozwój rynku płatności mobilnych w Polsce. Perspektywa konsumentów, dostawców i akceptantów płatności mobilnych",5,79,5%
9788375567939,9788375567939,"System pomiaru dokonań w przedsiębiorstwach",3,79,5%
9788326955235,9788326955235,"23 sposoby na skuteczną optymalizację kosztów w podmiocie leczniczym",2,79,5%
9788326955600,9788326955600,"Zbiór najnowszych ogólnych interpretacji podatkowych z praktycznym komentarzem",3,79,5%
9788326955594,9788326955594,"Prowadzenie i wypełnianie Książki Obiektu Budowlanego",2,79,5%
9788364347993,9788364347993,"Naturalnie",50,"79,9",5%
9788364347108,9788364347108,"Mapy. Obrazkowa podróż po lądach morzach i kulturach świata. Edycja pomarańczowa",50,"79,91",5%
9788365442482,9788365442482,"Sztuka fermentacji",20,"79,91",5%
9788328118195,9788328118195,"Skalp T.3",10,"79,99",5%
9788375568714,9788375568714,"Umysł odkrywający",4,82,5%
9788375531961,9788375531961,"Dzieje Polski tom 2",10,"82,95",5%
9788375531602,9788375531602,"Dzieje Polski tom 1",10,"82,95",5%
9788375790238,9788375790238,"Odżywianie dla zdrowia",20,"84,9",5%
9788375562262,9788375562262,"Teoria i praktyka zarządzania finansami przedsiębiorstw.",2,88,5%
9788326953705,9788326953705,"Ochrona danych osobowych w praktyce",2,89,5%
9788326949623,9788326949623,"Wypadki przy pracy i choroby zawodowe",2,89,5%
9788326949906,9788326949906,"DOKUMENTACJA DYREKTORA PRZEDSZKOLA ZARZĄDZANIE KADRY BEZPIECZEŃSTWO",5,89,5%
9788375568158,9788375568158,"New Electricity and New Cars",2,89,5%
9788326950230,9788326950230,"Wzory dokumentów dla zarządzaj.plac.medyczną 160 najczęściej poszukiwanych umów, regulaminó",2,89,23%
9788326955327,9788326955327,"Terminowe umowy o pracę w placówkach oświatowych",2,89,5%
9788326954757,9788326954757,"Zmiany w prawie oświatowym od roku szk. 2016/2017",3,89,5%
9788377857946,9788377857946,"Łańcuch śmierci. Czystka w Armii Czerwonej 1937-1939",6,89,5%
9788375568110,9788375568110,"Leksykon mierników dokonań",3,89,5%
9788326955556,9788326955556,"Prawo autorskie w oświacie",5,89,5%
9788326955914,9788326955914,"Regulamin ZFŚS na rok szkolny 2016/2017",5,89,5%
9788380851993,9788380851993,"Audyt kontroli wewnętrznej rachunkowości w środowisku informatycznym",1,95,5%
9788380850378,9788380850378,"Bezpieczeństwo narodowe Polski",1,95,5%
9788375567618,9788375567618,"Szkody w majątku pracodawcy",2,96,5%
9788375567427,9788375567427,"CROWDFUNDING - podręcznik",3,98,5%
52016,52016,"Zasady wykonywania zawodu radcy prawnego, etyka i samorząd radców prawnych",3,98,5%
9788326951190,9788326951190,"Ochrona środowiska w firmie Kompendium wiedzy dla przedsiębiorcy",3,"98,75",5%
9788326951237,9788326951237,"Vademecum zarządcy nieruchomości",2,"98,75",5%
9788326951398,9788326951398,"Audyt środowiskowy i kontrola WIOŚ w firmie",3,"98,99",5%
9788325587338,9788325587338,"Egzaminy prawnicze Ministerstwa Sprawiedliwości 2017. Tom 3. Kazusy do egzaminu adwokackiego i radcowskiego",3,99,5%
9788325585730,9788325585730,"Prawo spółek",3,99,5%
9788326953330,9788326953330,"Przewodnik po ochronie danych osobowych",2,99,5%
9788326952081,9788326952081,"Pracownik administracyjno-biurowy. Organizacja pracy, zagrożenia i szkolenia bhp",2,99,5%
9788326950902,9788326950902,"80 niezbędnych wzorów dokumentów z komentarzem dla przewoźników drogowych",2,99,5%
9788326949838,9788326949838,"KODEKS SPÓŁEK HANDLOWYCH Z KOMENTARZEM 01.04.2016",3,99,5%
9788374407205,9788374407205,"Vat w samorządach",2,99,5%
9788374407304,9788374407304,"Ordynacja podatkowa z komentarzem do zmian zmiany 2016",2,99,5%
9788325564438,9788325564438,"Legal English",5,99,5%
9788326955099,9788326955099,"Rozliczanie czasu pracy w podmiotach leczniczych w 2017 roku. jak uniknąć błędów - praktyczne wskazówki",2,99,5%
9788326954863,9788326954863,"Umowy zlecenia Umowy o dzieło 2017 Rewolucja w rozliczeniach",5,99,5%
9788376744827,9788376744827,"Historia Fado",10,"99,9",5%
9788376486727,9788376486727,"Tytus Superkolekcja Tom 1-25",6,"99,99",5%
9788375543049,9788375543049,"Pakiet Millennium",10,"99,99",5%
9788328118164,9788328118164,"Wieczny Batman T.3",10,"99,99",5%
9780751565355,9780751565355,"Harry Potter and the Cursed Child",20,"101,4",5%
12016,12016,"Prawo pracy i ubezpieczeń społecznych Zbiór odpowiedzi na kolokwium ustne dla pierwszego roku aplikacji radcowskiej",3,103,5%
9788326955303,9788326955303,"Statut publicznej szkoły podstawowej",2,104,23%
9788374407823,9788374407823,"Zasady sporządzania i kontroli dowodów księgowych w jednostkach sektora finansów publicznych",2,119,5%
9788375567601,9788375567601,"Gospodarka majątkiem jednostki budżetowej",2,119,5%
9788374406079,9788374406079,"Zamknięcie roku oraz instrukcja sporządzania sprawozdania finansowego za rok 2015",2,119,5%
9788375794588,9788375794588,"Bądź zwinny jak lampart",20,"119,9",5%
9788326955082,9788326955082,"Prawo zamówień publicznych 2016. Komentarz do nowelizacji",5,"124,9",5%
42016,42016,"Prawo gospodarcze i handlowe Zbiór odpowiedzi na kolokwium ustne dla drugiego roku aplikacji radcowskiej",3,128,5%
9788325587918,9788325587918,"Legal English",5,129,5%
9788325587048,9788325587048,"Egzaminy prawnicze Ministerstwa Sprawiedliwości 2017. Tom 4. Wzory pism z komentarzami. Etyka zawodowa",3,129,5%
9788325588861,9788325588861,"Centralizacja VAT w jednostkach sektora finansów publicznych",5,129,5%
9788374407779,9788374407779,"Praktyczny leksykon VAT 2016",2,129,5%
9788374408202,9788374408202,"Kodeks pracy 2016 z komentarzem",10,129,5%
9788364297786,9788364297786,"Pakiet PERCY JACKSON Tom 1-5",6,129,5%
9788374406956,9788374406956,"Ustawa o rachunkowości z komentarzem do zmian",2,129,5%
9788325587215,9788325587215,"Kodeks karny. Orzecznictwo Aplikanta",3,129,5%
9788325587239,9788325587239,"Kodeks postępowania administracyjnego. Orzecznictwo Aplikanta",2,129,5%
9788325587192,9788325587192,"Kodeks spółek handlowych. Orzecznictwo Aplikanta",2,129,5%
9788374409162,9788374409162,"Inwentaryzacja w jednostkach sektora finansów publicznych",5,129,5%
9788325575168,9788325575168,"English for Business Professionals",5,139,5%
9788326952630,9788326952630,"Klasyfikacja budżetowa 2016",5,147,5%
9788326949890,9788326949890,"Źródła finansowania NGO w.2016",2,147,5%
9788325587352,9788325587352,"Kodeks cywilny. Orzecznictwo Aplikanta",3,149,5%
9788325586959,9788325586959,"Sporządzanie środków zaskarżenia w postępowaniu cywilnym. Komentarz praktyczny. Wzory pism procesowych",3,149,5%
9788326950988,9788326950988,"Kompendium BHP Część 2",5,149,5%
9788326950971,9788326950971,"Kompendium BHP Część 1",5,149,5%
9788325585792,9788325585792,"Postępowanie restrukturyzacyjne. Komentarz praktyczny. Wzory pism i przykłady postępowań restrukturyzacyjnych",3,149,5%
9788325575359,9788325575359,"Rozliczenia związane ze spadkiem. Powołanie do spadku, zachowek, odpowiedzialność za długi spadkowe, dział spadku. Komentarz praktyczny z orzecznictwem. Wzory pism procesowych",3,149,5%
9788325578770,9788325578770,"Etyka zawodu adwokata",3,149,5%
9788325587390,9788325587390,"Kodeks postępowania karnego. Orzecznictwo Aplikanta",3,149,5%
9788325587376,9788325587376,"Kodeks postępowania cywilnego. Orzecznictwo Aplikanta",3,149,5%
9788325550639,9788325550639,"Metodyka pracy adwokata w sprawach cywilnych",3,159,5%
9788374405690,9788374405690,"Kodeks postępowania administracyjnego",1,159,5%
9788325587291,9788325587291,"Egzaminy Prawnicze Ministerstwa Sprawiedliwości 2017. Tom 1. Akta cywilne i karne",3,169,5%
9788325587314,9788325587314,"Egzaminy Prawnicze Ministerstwa Sprawiedliwości 2017. Tom 2. Akta gospodarcze i administracyjne",3,169,5%
9788325585457,9788325585457,"Metodyka pracy adwokata i radcy prawnego w sprawach karnych",3,169,5%
9788325589561,9788325589561,"Ustawa o kształtowaniu ustroju rolnego. Komentarz",3,169,5%
9788325586942,9788325586942,"Wykładnia umów. Standardowe klauzule umowne. Komentarz praktyczny z przeglądem orzecznictwa. Wzory umów",3,179,5%
9788325578121,9788325578121,"Przejęcie długu przystąpienie do długu, przejecie praw i obowiązków z umowy (zmiana strony umowy)",3,179,5%
9788325583774,9788325583774,"Pisma procesowe w sprawach cywilnych z objaśnieniami i płytą CD",3,179,5%
9788325568849,9788325568849,"Pisma, pisma sądowe i umowy z zakresu prawa upadłościowego i restrukturyzacyjnego z objaśnieniami i płytą CD",3,179,5%
9788325569570,9788325569570,"Umowy, pisma i pisma procesowe w sprawach handlowych z objaśnieniami i płytą CD",3,179,5%
9788326955464,9788326955464,"Biuro Dokumenty BHP",2,189,23%
9788325586218,9788325586218,"Pisma procesowe w sprawach karnych z objaśnieniami i płytą CD",3,199,5%
9788394428303,9788394428303,"Matematyka od zera dla inżyniera",50,199,5%
9788325583835,9788325583835,"Postępowanie cywilne Komentarz praktyczny dla sędziów i pełnomocników procesowych",3,199,5%
9788374406970,9788374406970,"Karta Nauczyciela z komentarzem",1,199,5%
9788325588847,9788325588847,"Ustawa o rachunkowości w jednostkach finansów publicznych",5,199,5%
9788326953828,9788326953828,"Egzamin na doradcę podatkowego testy kazusy",5,"208,95",5%
9788325588151,9788325588151,"Prawo budowlane. Komentarz",3,279,5%
9788325580520,9788325580520,"Prawo upadłościowe. Prawo restrukturyzacyjne. Komentarz",3,279,5%
9788372789242,9788372789242,"Pakiet Harry Potter (7 części)",6,289,5%
9788325581060,9788325581060,"Kodeks postępowania cywilnego. Tom 1. Komentarz do art. 1-366",3,299,5%
9788325581084,9788325581084,"Kodeks postępowania cywilnego. Tom 2. Komentarz do art. 367–729",3,299,5%
9788325584399,9788325584399,"Kodeks postępowania karnego. Komentarz",3,299,5%
9788375780925,9788375780925,"Wiedźmin T.1-8 Pakiet czarny",6,299,5%
9788325569556,9788325569556,"Kodeks postępowania cywilnego. Komentarz do art. 730–1088. Tom 3",3,299,5%
9788374407489,9788374407489,"Wielka Księga Prawa Pracy",3,299,5%
9788325583712,9788325583712,"Kodeks rodzinny i opiekuńczy Komentarz",3,"299,01",5%
9788325584276,9788325584276,"Kodeks postępowania administracyjnego. Komentarz",3,329,5%
9788325586935,9788325586935,"Kodeks pracy. Komentarz",3,349,5%
9788325579913,9788325579913,"Kodeks cywilny. Komentarz",3,349,5%
9788325579425,9788325579425,"Kodeks cywilny. Tom 2. Komentarz do art. 450-1088",3,349,5%
9788325579401,9788325579401,"Kodeks cywilny. Tom 1. Komentarz do art. 1-449",3,349,5%
9788325574918,9788325574918,"Konstytucja RP. Tom II. Komentarz do art. 87–243",3,399,5%
9788325573652,9788325573652,"Konstytucja RP Tom 1 Komentarz do art. 1–86",3,399,5%
9788375780710,9788375780710,"Wiedźmin kolekcja 8 tomów Sapkowskiego",6,500,5%
