MAILTO=a.golba@profit24.pl
27	6,7,8,9,10,12	*	*	*	php54 -f /var/www/vhosts/profit24.pl/httpdocs/LIB/communicator/sources/autoMatchFVtoPZ.php >> /var/www/vhosts/profit24.pl/import_logi/autoMatchFVtoPZ.log 2>&1
10	2,7	*	*	*	php54 -f /var/www/vhosts/profit24.pl/httpdocs/import/azymut_importuj_produkty_pass2.php >> /var/www/vhosts/profit24.pl/import_logi/azymut_importuj_produkty_pass2.txt 2>&1
2	14	*	*	*	php54 -f /var/www/vhosts/profit24.pl/httpdocs/import/mailPayOrderReminder.php >> /var/www/vhosts/profit24.pl/import_logi/mailPayOrderReminder.log 2>&1
1	*	*	*	*	php54 -f /var/www/vhosts/profit24.pl/httpdocs/LIB/Ceneo/PriceCommander.php >> /var/www/vhosts/profit24.pl/import_logi/PriceCommander.txt 2>&1
2	*	*	*	*	php54 -f /var/www/vhosts/profit24.pl/httpdocs/import/internalImportStatus.class.php >> /var/www/vhosts/profit24.pl/import_logi/internalImportStatus.txt 2>&1
50	6,12,23	*	*	*	php54 -f /var/www/vhosts/profit24.pl/httpdocs/import/clearMemcached.php >> /var/www/vhosts/profit24.pl/import_logi/clearMemcached.log  2>&1
0	2,7	*	*	*	php54 -f /var/www/vhosts/profit24.pl/httpdocs/import/azymut_importuj_produkty.php >> /var/www/vhosts/profit24.pl/import_logi/azymut_importuj_produkty.txt 2>&1
12	6,7,8,9,10,12	*	*	*	php54 -f /var/www/vhosts/profit24.pl/httpdocs/LIB/communicator/sources/Siodemka/parseGetDBF__ONCE.php >> /var/www/vhosts/profit24.pl/import_logi/siodemka_parseGetDBF.log 2>&1
#55	12	*	*	1-5	php54 -f /var/www/vhosts/profit24.pl/httpdocs/import/send_opineo_info_srv.php >> /var/www/vhosts/profit24.pl/import_logi/send_opineo_info_srv.log 2>&1
25	4	*	*	*	php54 -f /var/www/vhosts/profit24.pl/httpdocs/import/updateMainNewsCategories.php >> /var/www/vhosts/profit24.pl/import_logi/updateMainNewsCategories.log  2>&1
20	8,11,15,22	*	*	*	php54 -f /var/www/vhosts/profit24.pl/httpdocs/import/updatePacketStatus.php >> /var/www/vhosts/profit24.pl/import_logi/updatePacketStatus.txt  2>&1
1	21	1	*	*	php54 -f /var/www/vhosts/profit24.pl/httpdocs/import/updatePacketStatus_REBUILD.php >> /var/www/vhosts/profit24.pl/import_logi/updatePacketStatus_REBUILD.txt  2>&1
##	*/5	*	*	*	*	php54 -f /var/www/vhosts/profit24.pl/httpdocs/cron.php >> /var/www/vhosts/profit24.pl/import_logi/cron.log 2>&
15	6	*	*	*	php54 -f /var/www/vhosts/profit24.pl/httpdocs/import/setAudiobooksByCategory.php >> /var/www/vhosts/profit24.pl/import_logi/setAudiobooksByCategory.log  2>&1
47	3	*	*	*	php54 -f /var/www/vhosts/profit24.pl/httpdocs/import/cancel_orders.php >> /var/www/vhosts/profit24.pl/import_logi/auto_cancel_orders.txt 2>&1
39	8-23/2	*	*	*	php54 -f /var/www/vhosts/profit24.pl/httpdocs/import/platonUpdateStatus.class.php >> /var/www/vhosts/profit24.pl/import_logi/platonUpdateStatus.log 2>&1
4	6	1	*	*	php54 -f /var/www/vhosts/profit24.pl/httpdocs/import/DBF/createPDFSummaryVAT.php >> /var/www/vhosts/profit24.pl/import_logi/createPDFSummaryVAT.log 2>&1
28	5-23/1	*	*	*	php54 -f /var/www/vhosts/profit24.pl/httpdocs/LIB/communicator/sources/PaczkaWRuchu/autoGetPaczkaWRuchuPointsOfReceipt.php  >> /var/www/vhosts/profit24.pl/import_logi/autoGetPaczkaWRuchuPointsOfReceipt.log 2>&1
1	9	*	*	*	php54 -f /var/www/vhosts/profit24.pl/httpdocs/import/autoSendProductAvailablesNotification.class.php >> /var/www/vhosts/profit24.pl/import_logi/autoSendProductAvailablesNotification.log 2>&1
7	1,6	*	*	*	php54 -f /var/www/vhosts/profit24.pl/httpdocs/import/fixReservations.php >> /var/www/vhosts/profit24.pl/import_logi/fixReservations.log 2>&1
0	6	*	*	*	php54 -f /var/www/vhosts/profit24.pl/httpdocs/LIB/Elasticsearch/Command/CreateFullIndex.php >> /var/www/vhosts/profit24.pl/import_logi/create_full_index_log.txt 2>&1
53	5	*	*	*	php54 -f /var/www/vhosts/profit24.pl/httpdocs/import/DBF/createPDFMagazine.php >> /var/www/vhosts/profit24.pl/import_logi/createPDFMagazine.log 2>&1
13	9-23	*	*	*	php54 -f /var/www/vhosts/profit24.pl/httpdocs/import/ateneumImportStatus.class.php >> /var/www/vhosts/profit24.pl/import_logi/ateneum_aktualizuj_statusy.txt 2>&1
##	30	2	*	*	*	php54 -f /var/www/vhosts/profit24.pl/httpdocs/import/helion_import_categories.php >> /var/www/vhosts/profit24.pl/import_logi/helion_import_categories.txt  2>&1
6	6	*	*	*	php54 -f /var/www/vhosts/profit24.pl/httpdocs/LIB/FixAutomats/FixProductsIsNewsAndPreviews.php >> /var/www/vhosts/profit24.pl/import_logi/FixProductsIsNewsAndPreviews.txt 2>&1
6	13	*	*	*	php54 -f /var/www/vhosts/profit24.pl/httpdocs/LIB/orders_alert/autoOrdersAlert.class.php >> /var/www/vhosts/profit24.pl/import_logi/autoOrdersAlert.log 2>&1
10	7-23	*	*	*	php54 -f /var/www/vhosts/profit24.pl/httpdocs/import/siodemkaSynchroStatus.class.php >> /var/www/vhosts/profit24.pl/import_logi/siodemka_status.log  2>&1
25	3	*	*	*	php54 -f /var/www/vhosts/profit24.pl/httpdocs/import/clear_authors.php >> /var/www/vhosts/profit24.pl/import_logi/clear_authors.txt 2>&1
1	7	*	*	*	php54 -f /var/www/vhosts/profit24.pl/httpdocs/LIB/communicator/sources/Internal/streamsoft/synchroProductsToFV.class.php  >> /var/www/vhosts/profit24.pl/import_logi/synchroProductsToFV.log 2>&1
##	*	*	*	*	*	php -v >> test.txt 2>&1
20	19	*	*	*	php54 -f /var/www/vhosts/profit24.pl/httpdocs/import/generateNokautXml.php >> /var/www/vhosts/profit24.pl/import_logi/generateNokautXml.txt 2>&1
50	1,6	*	*	*	php54 -f /var/www/vhosts/profit24.pl/httpdocs/import/azymut_importuj_produkty.php >> /var/www/vhosts/profit24.pl/import_logi/azymut_importuj_produkty.txt 2>&1
48	9-23	*	*	*	php54 -f /var/www/vhosts/profit24.pl/httpdocs/import/azymut_aktualizuj_stany.php >> /var/www/vhosts/profit24.pl/import_logi/azymut_aktualizuj_stany.txt 2>&1
20	8	*	*	*	php54 -f httpdocs/import/clearNews.php >> import_logi/clearNews.log
54,58	*	*	*	*	php54 -f httpdocs/LIB/communicator/sources/Internal/streamsoft/autoSynchroStatements.php >> import_logi/autoSynchroStatements.log
#10	*	*	*	*	php54 -f /var/www/vhosts/profit24.pl/httpdocs/LIB/FixAutomats/FixRealisedOrdersWithErpExport.php >> /var/www/vhosts/profit24.pl/import_logi/FixRealisedOrdersWithErpExport.txt 2>&1
##	35	0	*	*	*	php54 -f /var/www/vhosts/profit24.pl/httpdocs/LIB/PriceUpdater/BufforUpdaterCommand.php >> /var/www/vhosts/profit24.pl/import_logi/BufforUpdater.txt  2>&1
##	45	2	*	*	*	php54 -f /var/www/vhosts/profit24.pl/httpdocs/import/helion_aktualizuj_statusy.php >> /var/www/vhosts/profit24.pl/import_logi/helion_aktualizuj_statusy.txt  2>&1
32	1,6	*	*	*	php54 -f /var/www/vhosts/profit24.pl/httpdocs/import/azymut_importuj_kategorie.php >> /var/www/vhosts/profit24.pl/import_logi/azymut_importuj_kategorie.txt 2>&1
0	7-23/1	*	*	*	php54 -f /var/www/vhosts/profit24.pl/httpdocs/LIB/FixAutomats/FixProductsLowerThanWholesalePrice.php >> /var/www/vhosts/profit24.pl/import_logi/FixProductsLowerThanWholesalePrice.txt  2>&1
##	52	2	*	*	*	php54 -f /var/www/vhosts/profit24.pl/httpdocs/import/olesiejukImportImageCatalog.class.php >> /var/www/vhosts/profit24.pl/import_logi/kategorie_zdjecia.log  2>&1
22	7,12,17,22	*	*	*	php54 -f httpdocs/LIB/FixAutomats/fixEmptyOrderItem.php >> import_logi/fixEmptyOrderItem.log 2>&1
20	7	*	*	*	php54 -f httpdocs/LIB/FixAutomats/fillEmptyWeight.php >> import_logi/fillEmptyWeight.log
35	2	*	*	*	php54 -f /var/www/vhosts/profit24.pl/httpdocs/LIB/Google/MerchantsFileGeneratorCommand.php smarkacz >> /var/www/vhosts/profit24.pl/import_logi/smarkacz_merchant.txt  2>&1
0	5	*	*	*	php54 -f /var/www/vhosts/profit24.pl/httpdocs/LIB/FixAutomats/ClearCeneoHistory.php >> /var/www/vhosts/profit24.pl/import_logi/ClearCeneoHistory.txt  2>&1
6	*/5	*	*	*	php54 -f httpdocs/LIB/FixAutomats/FixReservedNotInOpenOrders.php
50	6,14	*	*	*	php54 -f /var/www/vhosts/profit24.pl/httpdocs/import/updatePacketPrice.php >> /var/www/vhosts/profit24.pl/import_logi/updatePacketPrice.txt  2>&1
30	21	*	*	*	php54 -f /var/www/vhosts/profit24.pl/httpdocs/import/mailNotSendOnTime.php >> /var/www/vhosts/profit24.pl/import_logi/mailNotSendOnTime.log 2>&1
14,26,40,50	*	*	*	*	php54 -f /var/www/vhosts/profit24.pl/httpdocs/import/auto_orders/autoOrdersAteneum5-23.php >> /var/www/vhosts/profit24.pl/import_logi/autoOrdersAteneum5-23.log 2>&1
6,8,10,12,16,18,20,22    18      *       *       *       php54 -f /var/www/vhosts/profit24.pl/httpdocs/import/auto_orders/autoOrdersAteneum.php >> /var/www/vhosts/profit24.pl/import_logi/autoOrdersAteneum.log 2>&1
43	3	*	*	*	php54 -f /var/www/vhosts/profit24.pl/httpdocs/import/clear_bindings.php >> /var/www/vhosts/profit24.pl/import_logi/clear_bindings.txt 2>&1
45	3	*	*	*	php54 -f /var/www/vhosts/profit24.pl/httpdocs/import/clear_publishers.php >> /var/www/vhosts/profit24.pl/import_logi/clear_publishers.txt 2>&1
16,28,42,52	*	*	*	*	php54 -f /var/www/vhosts/profit24.pl/httpdocs/import/auto_orders/autoOrdersPlaton5-23.php >> /var/www/vhosts/profit24.pl/import_logi/autoOrderslaton5-23.log 2>&1
45,48   15      *       *       *       php54 -f /var/www/vhosts/profit24.pl/httpdocs/import/auto_orders/autoOrdersPlaton.php >> /var/www/vhosts/profit24.pl/import_logi/autoOrderslaton.log 2>&1
40	3	*	*	*	php54 -f /var/www/vhosts/profit24.pl/httpdocs/import/clear_languages.ph2p >> /var/www/vhosts/profit24.pl/import_logi/clear_languages.txt 2>&1
3,17,26,37,49	9-21/1	*	*	*	php54 -f /var/www/vhosts/profit24.pl/httpdocs/LIB/orders/autoGetTransport.class.php >> /var/www/vhosts/profit24.pl/import_logi/autoGetTransport.logg 2>&1
52	9-23/4	*	*	*	php54 -f /var/www/vhosts/profit24.pl/httpdocs/import/azymut_aktualizuj_ceny.php >> /var/www/vhosts/profit24.pl/import_logi/azymut_aktualizuj_ceny.txt 2>&1
45	20	*	*	*	php54 -f /var/www/vhosts/profit24.pl/httpdocs/LIB/PriceUpdater/ProductMainCategoryUpdater.php >> /var/www/vhosts/profit24.pl/import_logi/ProductMainCategoryUpdater.txt 2>&1
28	4	*	*	*	php54 -f /var/www/vhosts/profit24.pl/httpdocs/import/siodemkaSynchroCategories.class.php >> /var/www/vhosts/profit24.pl/import_logi/siodemka_categories.log  2>&1
6	12-19/1	*	*	*	php54 -f /var/www/vhosts/profit24.pl/httpdocs/LIB/orders/autoChangeStatus_12_19.class.php >> /var/www/vhosts/profit24.pl/import_logi/autoChangeStatus_12_19.log 2>&1
57	0,1,2,3,4,5,6,7,12,13,18,19,20,21,22,23	*	*	*	php54 -f /var/www/vhosts/profit24.pl/httpdocs/LIB/communicator/sources/Internal/streamsoft/autoValidateInvoicesSingleDay.php >>  /var/www/vhosts/profit24.pl/import_logi/autoValidateInvoicesSingleDay.log 2>&1
28	8,10,14,18	*	*	*	php54 -f /var/www/vhosts/profit24.pl/httpdocs/import/dictumStatusSynchro.class.php >> /var/www/vhosts/profit24.pl/import_logi/dictum_status.log  2>&1
##	4	8-23/1	*	*	1-6	/usr/bin/nice -n 19 php54 -f /var/www/vhosts/profit24.pl/httpdocs/import/internal_import.php >> /var/www/vhosts/profit24.pl/import_logi/internal_import.txt 2>&1
1	23,14	*	*	*	php54 -f /var/www/vhosts/profit24.pl/httpdocs/import/generateSkapiecXml.php >> /var/www/vhosts/profit24.pl/import_logi/generateSkapiecXml.txt 2>&1
10	7	*	*	*	php54 -f /var/www/vhosts/profit24.pl/httpdocs/import/ateneumImportPrices.class.php >> /var/www/vhosts/profit24.pl/import_logi/ateneum_aktualizuj_ceny.txt 2>&1
##	5	1	*	*	*	php54 -f /var/www/vhosts/profit24.pl/httpdocs/import/abeImport.class.php >> /var/www/vhosts/profit24.pl/import_logi/abe_importuj_produkty.txt 2>&1
##	0	7	*	*	2	php54 -f /var/www/vhosts/profit24.pl/httpdocs/import/newsletter_news.php >> /var/www/vhosts/profit24.pl/import_logi/newsletter_news.log 2>&1
48	3	*	*	1	php54 -f /var/www/vhosts/profit24.pl/httpdocs/import/cron_update_bestsellers.php >> /var/www/vhosts/profit24.pl/import_logi/bestsellery_automat.txt  2>&1
0,10,20,30,40,50	7-23	*	*	*	php54 -f /var/www/vhosts/profit24.pl/httpdocs/LIB/Elasticsearch/Command/UpdateIndex.php >> /var/www/vhosts/profit24.pl/import_logi/elastic_log.txt 2>&1
49	22	*	*	*	php54 -f /var/www/vhosts/profit24.pl/httpdocs/import/mailAfterDeliver.php >> /var/www/vhosts/profit24.pl/import_logi/mailAfterDeliver.log 2>&1
25	5	*	*	*	php54 -f /var/www/vhosts/profit24.pl/httpdocs/LIB/communicator/sources/PocztaPolska/autoGetPocztaPolskaPointsOfReceipt.php  >> /var/www/vhosts/profit24.pl/import_logi/autoGetPocztaPolskaPointsOfReceipt.log 2>&1
45	4	*	*	*	php54 -f /var/www/vhosts/profit24.pl/httpdocs/import/siodemkaSynchroPricesWH.class.php >> /var/www/vhosts/profit24.pl/import_logi/siodemkaSynchroPricesWH.log 2>&1
##	34	2	*	*	*	php54 -f /var/www/vhosts/profit24.pl/httpdocs/import/helion_importuj_produkty.php >> /var/www/vhosts/profit24.pl/import_logi/helion_produkty.txt 2>&1
5	*	*	*	*	php54 -f /var/www/vhosts/profit24.pl/httpdocs/LIB/FixAutomats/CheckNegativeProducts.php >> /var/www/vhosts/profit24.pl/import_logi/CheckNegativeProducts.txt 2>&1
##	*	*	*	*	*	php -v >> /var/www/vhosts/profit24.pl/import_logi/test.txt 2>&1


40	23	*	*	*	php54 -f /var/www/vhosts/profit24.pl/httpdocs/import/generateCeneoXml_v2.php >> /var/www/vhosts/profit24.pl/import_logi/generateCeneoXml_v2.txt 2>&1
10      10      *       *       *       php54 -f /var/www/vhosts/profit24.pl/httpdocs/import/generateCeneoXml_v2.php >> /var/www/vhosts/profit24.pl/import_logi/generateCeneoXml_v2.txt 2>&1
10      16      *       *       *       php54 -f /var/www/vhosts/profit24.pl/httpdocs/import/generateCeneoXml_v2.php >> /var/www/vhosts/profit24.pl/import_logi/generateCeneoXml_v2.txt 2>&1



30	5	*	*	*	php54 -f /var/www/vhosts/profit24.pl/httpdocs/LIB/communicator/sources/Orlen/autoGetOrlenPointsOfReceipt.php >> /var/www/vhosts/profit24.pl/import_logi/autoGetOrlenPointsOfReceipt.log 2>&1
33	1,6	*	*	*	php54 -f /var/www/vhosts/profit24.pl/httpdocs/import/azymut_importuj_indeksy2kategorie.php >> /var/www/vhosts/profit24.pl/import_logi/azymut_importuj_indeksy2kategorie.txt 2>&1
##	2	6,14,18,22	*	*	*	php54 -f /var/www/vhosts/profit24.pl/httpdocs/import/mailOrderReminder.php >> /var/www/vhosts/profit24.pl/import_logi/mailOrderReminder.log 2>&1
30	4	*	*	*	php54 -f /var/www/vhosts/profit24.pl/httpdocs/import/siodemkaImport.class.php >> /var/www/vhosts/profit24.pl/import_logi/siodemka_import.log  2>&1
55	5	*	*	*	php54 -f /var/www/vhosts/profit24.pl/httpdocs/import/DBF/createPDFVAT.php >> /var/www/vhosts/profit24.pl/import_logi/createPDFVAT.log 2>&1
8	9-23/2	*	*	*	php54 -f /var/www/vhosts/profit24.pl/httpdocs/import/platonUpdateModiffied.class.php >> /var/www/vhosts/profit24.pl/import_logi/platonUpdateModiffied.log 2>&1
1	4	*	*	*	mysqldump -uadmin58727_prof2 -pD5vb4P02 main_profit24 > /var/www/vhosts/profit24.pl/backup_db.sql && mv  /var/www/vhosts/profit24.pl/backup_db.sql /data/db/backup_main_profit24_db_`date +\%y\%m\%d`.sql
55	1,6	*	*	*	php54 -f /var/www/vhosts/profit24.pl/httpdocs/import/azymut_importuj_produkty.php >> /var/www/vhosts/profit24.pl/import_logi/azymut_importuj_produkty.txt 2>&1
#20	1-6	*	*	*	php54 -f /var/www/vhosts/profit24.pl/httpdocs/LIB/FixAutomats/FixRealisedOrdersWithErpExport.php >> /var/www/vhosts/profit24.pl/import_logi/FixRealisedOrdersWithErpExport.txt 2>&1
7	5	*	*	*	php54 -f /var/www/vhosts/profit24.pl/httpdocs/import/platonImport.class.php >> /var/www/vhosts/profit24.pl/import_logi/platonImport.log 2>&1
5	2,7	*	*	*	php54 -f /var/www/vhosts/profit24.pl/httpdocs/import/azymut_importuj_produkty.php last >> /var/www/vhosts/profit24.pl/import_logi/azymut_importuj_produkty.txt 2>&1
##	25	11	*	*	*	php54 -f /var/www/vhosts/profit24.pl/httpdocs/LIB/communicator/sources/Azymut/parseGetDBF__ONCE.php >> /var/www/vhosts/profit24.pl/import_logi/azymut_parseGetDBF.log 2>&1
##	25	10	*	*	*	php54 -f /var/www/vhosts/profit24.pl/httpdocs/LIB/communicator/sources/Internal/generateNewProductsDBF.class.php >> /var/www/vhosts/profit24.pl/import_logi/internal_NewProductsDBF.log 2>&1
7	7,10,13,16,20	*	*	*	php54 -f /var/www/vhosts/profit24.pl/httpdocs/import/paczkomaty/importPaczkomaty.php >> /var/www/vhosts/profit24.pl/import_logi/importPaczkomaty.log  2>&1
10	7	*	*	*	php54 -f /var/www/vhosts/profit24.pl/httpdocs/import/fixPreviews.php >> /var/www/vhosts/profit24.pl/import_logi/fixPreviews.log  2>&1
0	7	*	*	*	php54 -f /var/www/vhosts/profit24.pl/httpdocs/import/updateShadow.php >> /var/www/vhosts/profit24.pl/import_logi/createShadow.txt 2>&1
##	0	21	*	*	*	php54 -f /var/www/vhosts/profit24.pl/httpdocs/import/deleteABEOffer.php >> /var/www/vhosts/profit24.pl/import_logi/deleteABEOffer.log 2>&1
10	*	*	*	*	/usr/bin/nice -n 19 php54 -f /var/www/vhosts/profit24.pl/httpdocs/import/internalImportProducts.class.php >> /var/www/vhosts/profit24.pl/import_logi/internalImportProducts.txt 2>&1
1	23,3	*	*	*	php54 -f /var/www/vhosts/profit24.pl/httpdocs/import/recountTarrifs.php >> /var/www/vhosts/profit24.pl/import_logi/recounttarrifs.txt 2>&1
46	3	*	*	*	php54 -f /var/www/vhosts/profit24.pl/httpdocs/import/updateSearchSuggestions.php >> /var/www/vhosts/profit24.pl/import_logi/searchsuggestions.txt 2>&1
45	1,6	*	*	*	php54 -f /var/www/vhosts/profit24.pl/httpdocs/import/azymut_importuj_produkty.php >> /var/www/vhosts/profit24.pl/import_logi/azymut_importuj_produkty.txt 2>&1
55	6	*	*	*	php54 -f /var/www/vhosts/profit24.pl/httpdocs/import/azymut_aktualizuj_ceny.php >> /var/www/vhosts/profit24.pl/import_logi/azymut_aktualizuj_ceny.txt 2>&1
12	8	*	*	*	php54 -f /var/www/vhosts/profit24.pl/httpdocs/LIB/reports/autoReports.class.php >> /var/www/vhosts/profit24.pl/import_logi/autoReports.log 2>&1
38	7	*	*	*	php54 -f /var/www/vhosts/profit24.pl/httpdocs/import/ateneumImportWHPrices.class.php >> /var/www/vhosts/profit24.pl/import_logi/ateneum_aktualizuj_ceny_zakupu.txt 2>&1
36	3	*	*	*	php54 -f /var/www/vhosts/profit24.pl/httpdocs/import/clearTarrifs.php >> /var/www/vhosts/profit24.pl/import_logi/cleartarrifs.txt 2>&1
15,27,41,51	*	*	*	*	php54 -f /var/www/vhosts/profit24.pl/httpdocs/import/auto_orders/autoOrdersSiodemka.php >> /var/www/vhosts/profit24.pl/import_logi/autoOrdersSiodemka.log 2>&1
16,28,42,52     *       *       *       *       php54 -f /var/www/vhosts/profit24.pl/httpdocs/import/auto_orders/autoOrdersSiodemkaGame.php >> /var/www/vhosts/profit24.pl/import_logi/autoOrdersSiodemkaGame.log 2>&1
50      16       *       *       *       php54 -f /var/www/vhosts/profit24.pl/httpdocs/import/auto_orders/autoOrdersSiodemkaAll.php >> /var/www/vhosts/profit24.pl/import_logi/autoOrdersSiodemkaAll.log 2>&1
51      16       *       *       *       php54 -f /var/www/vhosts/profit24.pl/httpdocs/import/auto_orders/autoOrdersSiodemkaAllBooks.php >> /var/www/vhosts/profit24.pl/import_logi/autoOrdersSiodemkaAllBooks.log 2>&1
41	3	*	*	*	php54 -f /var/www/vhosts/profit24.pl/httpdocs/import/clearNewsUsers.php >> /var/www/vhosts/profit24.pl/import_logi/clearnewsusers.txt 2>&1
44	3	*	*	*	php54 -f /var/www/vhosts/profit24.pl/httpdocs/import/clear_series.php >> /var/www/vhosts/profit24.pl/import_logi/clear_series.txt 2>&1
##	0	*/3	*	*	*	php54 -f /var/www/vhosts/profit24.pl/httpdocs/LIB/PriceUpdater/CyclicProductMainCategoryUpdater.php >> /var/www/vhosts/profit24.pl/import_logi/CyclicProductMainCategoryUpdater.txt 2>&1
##	3	3	*	*	*	php54 -f /var/www/vhosts/profit24.pl/httpdocs/import/olesiejukImportAllElements.class.php >> /var/www/vhosts/profit24.pl/import_logi/olesiejuk_import_all_elements.log  2>&1
1	23	*	*	*	php54 -f /var/www/vhosts/profit24.pl/httpdocs/import/generateNokautXml_v2.php >> /var/www/vhosts/profit24.pl/import_logi/generateNokautXml_v2.txt 2>&1
1	7	*	*	*	php54 -f /var/www/vhosts/profit24.pl/httpdocs/import/ateneumImportIndexProducts.class.php >> /var/www/vhosts/profit24.pl/import_logi/ateneum_importuj_indeksy_produktow.txt 2>&1
0	10-21/1	*	*	1-6	php54 -f /var/www/vhosts/profit24.pl/httpdocs/profit.profit24.pl/import/menu_import.php >> /var/www/vhosts/profit24.pl/import_logi/wewnetrzna_menu_import.txt 2>&1
20	2	*	*	*	php54 -f /var/www/vhosts/profit24.pl/httpdocs/import/dictumImport.class.php >> /var/www/vhosts/profit24.pl/import_logi/dictum_import.log  2>&1
###14,21,31,41,49,55	*	*	*	*	php54 -f /var/www/vhosts/profit24.pl/httpdocs/LIB/orders/autoChangeStatus.class.php >> /var/www/vhosts/profit24.pl/import_logi/autoChangeStatus.log 2>&1
15	0,1,2,3,4,5,6,7,18,19,20,21,22,23	*	*	*	timeout 2100 php54 -f /var/www/vhosts/profit24.pl/httpdocs/LIB/communicator/sources/Internal/streamsoft/autoSynchroInvoicesBig.php >> /var/www/vhosts/profit24.pl/import_logi/autoSynchroInvoicesBig.log 2>&1
16      0,1,2,3,4,5,6,7,18,19,20,21,22,23	*       *       *       timeout 2100 php54 -f /var/www/vhosts/profit24.pl/httpdocs/LIB/communicator/sources/Internal/streamsoft/autoSynchroInvoicesSmall.php >> /var/www/vhosts/profit24.pl/import_logi/autoSynchroInvoicesSmall.log 2>&1
#15      *       *       *       *       timeout 2640 php54 -f /var/www/vhosts/profit24.pl/httpdocs/LIB/communicator/sources/Internal/streamsoft/autoSynchroInvoices.php >> /var/www/vhosts/profit24.pl/import_logi/autoSynchroInvoices.log 2>&1
13,25,39,49	*	*	*	*	php54 -f /var/www/vhosts/profit24.pl/httpdocs/import/auto_orders/autoOrders.php >> /var/www/vhosts/profit24.pl/import_logi/autoOrders.log 2>&1
##	0	*/5	*	*	*	php54 -f /var/www/vhosts/profit24.pl/httpdocs/LIB/FixAutomats/RepairCeneoCategories.php >> /var/www/vhosts/profit24.pl/import_logi/RepairCeneoCategories.txt 2>&1
20	7	*	*	*	php54 -f /var/www/vhosts/profit24.pl/httpdocs/import/generateSitemaps.php >> /var/www/vhosts/profit24.pl/import_logi/generateSitemaps.txt 2>&1
30	6	*	*	*	php54 -f /var/www/vhosts/profit24.pl/httpdocs/import/azymut_aktualizuj_stany.php >> /var/www/vhosts/profit24.pl/import_logi/azymut_aktualizuj_stany.txt 2>&1

45	*	*	*	*	php54 -f /var/www/vhosts/profit24.pl/httpdocs/LIB/Ceneo/UpdateNowCommander.php 4 >> /var/www/vhosts/profit24.pl/import_logi/UpdateNowCommander_mestro.txt 2>&1
30      *       *       *       *       php54 -f /var/www/vhosts/profit24.pl/httpdocs/LIB/Ceneo/UpdateNowCommander.php 3 >> /var/www/vhosts/profit24.pl/import_logi/UpdateNowCommander_np.txt 2>&1


##	35	1-7	*	*	*	php54 -f /var/www/vhosts/profit24.pl/httpdocs/LIB/Elasticsearch/Command/UpdateIndex.php >> /var/www/vhosts/profit24.pl/import_logi/elastic.log 2>&1
42	7	*/7	*	*	php54 -f httpdocs/LIB/communicator/sources/PocztaPolska/autoPocztaPolskaChangePassword.php >> import_logi/autoPocztaPolskaChangePassword.txt  2>&1
22	9	*	*	*	php54 -f httpdocs/import/clearDeletedProducts.php >>  import_logi/clearDeletedProducts.log
0	5	*	*	*	php54 -f /var/www/vhosts/profit24.pl/httpdocs/LIB/communicator/sources/Internal/streamsoft/autoSynchroImages.php >> /var/www/vhosts/profit24.pl/import_logi/autoSynchroImages.log 2>&1
#55	2	*	*	*	php54 -f /var/www/vhosts/profit24.pl/httpdocs/import/olesiejukUpdateAvailable.class.php >> /var/www/vhosts/profit24.pl/import_logi/olesiejuk_statusy.log  2>&1
18	1	*	*	*	php54 -f /var/www/vhosts/profit24.pl/httpdocs/LIB/FixAutomats/ClearCeneoHistory.php >> /var/www/vhosts/profit24.pl/import_logi/ClearCeneoHistory.txt  2>&1
##	1	1	*	*	*	php54 -f /var/www/vhosts/profit24.pl/httpdocs/import/abeSynchroCategories.class.php >> /var/www/vhosts/profit24.pl/import_logi/abe_synchronizacja_kategorii.log  2>&1
30	23	*	*	*	php54 -f httpdocs/import/generateBuyBoxXml_v2.php >> import_logi/generateBuyBoxXml_v2.php 2>&1
25	2	*	*	*	php54 -f /var/www/vhosts/profit24.pl/httpdocs/LIB/Google/MerchantsFileGeneratorCommand.php np >> /var/www/vhosts/profit24.pl/import_logi/np_merchant.txt  2>&1
10	3	*	*	*	php54 -f httpdocs/LIB/communicator/sources/Internal/streamsoft/updateOffer.php  >> import_logi/updateOffer.log 2>&1
45	2	*	*	*	php54 -f /var/www/vhosts/profit24.pl/httpdocs/LIB/Google/MerchantsFileGeneratorCommand.php profit24 >> /var/www/vhosts/profit24.pl/import_logi/profit24_merchant.txt  2>&1
13	6,7,8,9,10,12	*	*	*	php54 -f /var/www/vhosts/profit24.pl/httpdocs/LIB/communicator/sources/Ateneum/parseGetDBF__ONCE.php >> /var/www/vhosts/profit24.pl/import_logi/ateneum_parseGetDBF.log 2>&1
#8      *      *       *       *       php54 -f /var/www/vhosts/profit24.pl/httpdocs/LIB/communicator/sources/Internal/streamsoft/fixPS.class.php >> /var/www/vhosts/profit24.pl/import_logi/fixPS.log 2>&1
#9	*	*	*	*	php54 -f /var/www/vhosts/profit24.pl/httpdocs/LIB/FixAutomats/CheckInvaildProducts.php
10      6      *       *       *       php54 -f /var/www/vhosts/profit24.pl/httpdocs/LIB/communicator/sources/Internal/streamsoft/fixSendInvoces.class.php >> /var/www/vhosts/profit24.pl/import_logi/fixSendInvoces.log 2>&1
20 6 * * * php54 -f /var/www/vhosts/profit24.pl/httpdocs/LIB/FixAutomats/GenerateTopProductsBuffer.php >> /var/www/vhosts/profit24.pl/import_logi/GenerateTopProductsBuffer.txt 2>&1
20 15 * * * php54 -f /var/www/vhosts/profit24.pl/httpdocs/LIB/FixAutomats/GenerateTopProductsBuffer.php >> /var/www/vhosts/profit24.pl/import_logi/GenerateTopProductsBuffer.txt 2>&1

12     23     *       *       *       php54 -f httpdocs/import/clearLocationUnavailable.php >> import_logi/clearLocationUnavailable.log 2>&1
8	3	*	*	*	php54 -f httpdocs/LIB/FixAutomats/fixNegativeToFixReservation.php >> import_logi/fixNegativeToFixReservation.log 2>&1
#8	*	*	*	*	php54 -f httpdocs/LIB/FixAutomats/FixRealisedOrdersWithErpExport2.php
27       8-23       *       *       *       php54 -f httpdocs/import/sendPleaseReview.php >> import_logi/sendPleaseReview.log 2>&1

